Q2.vcd
$version Generated by VerilatedVcd $end
$timescale 1ps $end
 $scope module TOP $end
  $var wire 1 [ clock $end
  $var wire 1 \ reset $end
  $var wire 32 ] io_instruction_address [31:0] $end
  $var wire 32 ^ io_instruction [31:0] $end
  $var wire 32 _ io_memory_bundle_address [31:0] $end
  $var wire 32 ` io_memory_bundle_write_data [31:0] $end
  $var wire 1 a io_memory_bundle_write_enable $end
  $var wire 1 b io_memory_bundle_write_strobe_0 $end
  $var wire 1 c io_memory_bundle_write_strobe_1 $end
  $var wire 1 d io_memory_bundle_write_strobe_2 $end
  $var wire 1 e io_memory_bundle_write_strobe_3 $end
  $var wire 32 f io_memory_bundle_read_data [31:0] $end
  $var wire 1 g io_instruction_valid $end
  $var wire 3 h io_deviceSelect [2:0] $end
  $var wire 5 i io_debug_read_address [4:0] $end
  $var wire 32 j io_debug_read_data [31:0] $end
  $scope module Top $end
   $var wire 1 [ clock $end
   $var wire 1 \ reset $end
   $var wire 32 ] io_instruction_address [31:0] $end
   $var wire 32 ^ io_instruction [31:0] $end
   $var wire 32 _ io_memory_bundle_address [31:0] $end
   $var wire 32 ` io_memory_bundle_write_data [31:0] $end
   $var wire 1 a io_memory_bundle_write_enable $end
   $var wire 1 b io_memory_bundle_write_strobe_0 $end
   $var wire 1 c io_memory_bundle_write_strobe_1 $end
   $var wire 1 d io_memory_bundle_write_strobe_2 $end
   $var wire 1 e io_memory_bundle_write_strobe_3 $end
   $var wire 32 f io_memory_bundle_read_data [31:0] $end
   $var wire 1 g io_instruction_valid $end
   $var wire 3 h io_deviceSelect [2:0] $end
   $var wire 5 i io_debug_read_address [4:0] $end
   $var wire 32 j io_debug_read_data [31:0] $end
   $var wire 1 [ cpu_clock $end
   $var wire 1 \ cpu_reset $end
   $var wire 32 ] cpu_io_instruction_address [31:0] $end
   $var wire 32 ^ cpu_io_instruction [31:0] $end
   $var wire 32 _ cpu_io_memory_bundle_address [31:0] $end
   $var wire 32 ` cpu_io_memory_bundle_write_data [31:0] $end
   $var wire 1 a cpu_io_memory_bundle_write_enable $end
   $var wire 1 b cpu_io_memory_bundle_write_strobe_0 $end
   $var wire 1 c cpu_io_memory_bundle_write_strobe_1 $end
   $var wire 1 d cpu_io_memory_bundle_write_strobe_2 $end
   $var wire 1 e cpu_io_memory_bundle_write_strobe_3 $end
   $var wire 32 f cpu_io_memory_bundle_read_data [31:0] $end
   $var wire 1 g cpu_io_instruction_valid $end
   $var wire 5 i cpu_io_debug_read_address [4:0] $end
   $var wire 32 j cpu_io_debug_read_data [31:0] $end
   $scope module cpu $end
    $var wire 1 [ clock $end
    $var wire 1 \ reset $end
    $var wire 32 ] io_instruction_address [31:0] $end
    $var wire 32 ^ io_instruction [31:0] $end
    $var wire 32 _ io_memory_bundle_address [31:0] $end
    $var wire 32 ` io_memory_bundle_write_data [31:0] $end
    $var wire 1 a io_memory_bundle_write_enable $end
    $var wire 1 b io_memory_bundle_write_strobe_0 $end
    $var wire 1 c io_memory_bundle_write_strobe_1 $end
    $var wire 1 d io_memory_bundle_write_strobe_2 $end
    $var wire 1 e io_memory_bundle_write_strobe_3 $end
    $var wire 32 f io_memory_bundle_read_data [31:0] $end
    $var wire 1 g io_instruction_valid $end
    $var wire 5 i io_debug_read_address [4:0] $end
    $var wire 32 j io_debug_read_data [31:0] $end
    $var wire 1 [ regs_clock $end
    $var wire 1 \ regs_reset $end
    $var wire 1 # regs_io_write_enable $end
    $var wire 5 $ regs_io_write_address [4:0] $end
    $var wire 32 1 regs_io_write_data [31:0] $end
    $var wire 5 % regs_io_read_address1 [4:0] $end
    $var wire 5 & regs_io_read_address2 [4:0] $end
    $var wire 32 2 regs_io_read_data1 [31:0] $end
    $var wire 32 3 regs_io_read_data2 [31:0] $end
    $var wire 5 i regs_io_debug_read_address [4:0] $end
    $var wire 32 j regs_io_debug_read_data [31:0] $end
    $var wire 1 [ inst_fetch_clock $end
    $var wire 1 \ inst_fetch_reset $end
    $var wire 1 4 inst_fetch_io_jump_flag_id $end
    $var wire 32 5 inst_fetch_io_jump_address_id [31:0] $end
    $var wire 32 ^ inst_fetch_io_instruction_read_data [31:0] $end
    $var wire 1 g inst_fetch_io_instruction_valid $end
    $var wire 32 ] inst_fetch_io_instruction_address [31:0] $end
    $var wire 32 k inst_fetch_io_instruction [31:0] $end
    $var wire 32 k id_io_instruction [31:0] $end
    $var wire 5 % id_io_regs_reg1_read_address [4:0] $end
    $var wire 5 & id_io_regs_reg2_read_address [4:0] $end
    $var wire 32 ' id_io_ex_immediate [31:0] $end
    $var wire 1 ( id_io_ex_aluop1_source $end
    $var wire 1 ) id_io_ex_aluop2_source $end
    $var wire 1 * id_io_memory_read_enable $end
    $var wire 1 + id_io_memory_write_enable $end
    $var wire 2 , id_io_wb_reg_write_source [1:0] $end
    $var wire 1 # id_io_reg_write_enable $end
    $var wire 5 $ id_io_reg_write_address [4:0] $end
    $var wire 32 k ex_io_instruction [31:0] $end
    $var wire 32 ] ex_io_instruction_address [31:0] $end
    $var wire 32 2 ex_io_reg1_data [31:0] $end
    $var wire 32 3 ex_io_reg2_data [31:0] $end
    $var wire 32 ' ex_io_immediate [31:0] $end
    $var wire 1 ( ex_io_aluop1_source $end
    $var wire 1 ) ex_io_aluop2_source $end
    $var wire 32 6 ex_io_mem_alu_result [31:0] $end
    $var wire 1 4 ex_io_if_jump_flag $end
    $var wire 32 5 ex_io_if_jump_address [31:0] $end
    $var wire 32 6 mem_io_alu_result [31:0] $end
    $var wire 32 3 mem_io_reg2_data [31:0] $end
    $var wire 1 * mem_io_memory_read_enable $end
    $var wire 1 + mem_io_memory_write_enable $end
    $var wire 3 - mem_io_funct3 [2:0] $end
    $var wire 32 l mem_io_wb_memory_read_data [31:0] $end
    $var wire 32 6 mem_io_memory_bundle_address [31:0] $end
    $var wire 32 ` mem_io_memory_bundle_write_data [31:0] $end
    $var wire 1 a mem_io_memory_bundle_write_enable $end
    $var wire 1 b mem_io_memory_bundle_write_strobe_0 $end
    $var wire 1 c mem_io_memory_bundle_write_strobe_1 $end
    $var wire 1 d mem_io_memory_bundle_write_strobe_2 $end
    $var wire 1 e mem_io_memory_bundle_write_strobe_3 $end
    $var wire 32 f mem_io_memory_bundle_read_data [31:0] $end
    $var wire 32 ] wb_io_instruction_address [31:0] $end
    $var wire 32 6 wb_io_alu_result [31:0] $end
    $var wire 32 l wb_io_memory_read_data [31:0] $end
    $var wire 2 , wb_io_regs_write_source [1:0] $end
    $var wire 32 1 wb_io_regs_write_data [31:0] $end
    $scope module ex $end
     $var wire 32 k io_instruction [31:0] $end
     $var wire 32 ] io_instruction_address [31:0] $end
     $var wire 32 2 io_reg1_data [31:0] $end
     $var wire 32 3 io_reg2_data [31:0] $end
     $var wire 32 ' io_immediate [31:0] $end
     $var wire 1 ( io_aluop1_source $end
     $var wire 1 ) io_aluop2_source $end
     $var wire 32 6 io_mem_alu_result [31:0] $end
     $var wire 1 4 io_if_jump_flag $end
     $var wire 32 5 io_if_jump_address [31:0] $end
     $var wire 5 . alu_io_func [4:0] $end
     $var wire 32 7 alu_io_op1 [31:0] $end
     $var wire 32 8 alu_io_op2 [31:0] $end
     $var wire 32 6 alu_io_result [31:0] $end
     $var wire 7 / alu_ctrl_io_opcode [6:0] $end
     $var wire 3 - alu_ctrl_io_funct3 [2:0] $end
     $var wire 7 m alu_ctrl_io_funct7 [6:0] $end
     $var wire 5 . alu_ctrl_io_alu_funct [4:0] $end
     $var wire 7 / opcode [6:0] $end
     $var wire 3 - funct3 [2:0] $end
     $scope module alu $end
      $var wire 5 . io_func [4:0] $end
      $var wire 32 7 io_op1 [31:0] $end
      $var wire 32 8 io_op2 [31:0] $end
      $var wire 32 6 io_result [31:0] $end
     $upscope $end
     $scope module alu_ctrl $end
      $var wire 7 / io_opcode [6:0] $end
      $var wire 3 - io_funct3 [2:0] $end
      $var wire 7 m io_funct7 [6:0] $end
      $var wire 5 . io_alu_funct [4:0] $end
     $upscope $end
    $upscope $end
    $scope module id $end
     $var wire 32 k io_instruction [31:0] $end
     $var wire 5 % io_regs_reg1_read_address [4:0] $end
     $var wire 5 & io_regs_reg2_read_address [4:0] $end
     $var wire 32 ' io_ex_immediate [31:0] $end
     $var wire 1 ( io_ex_aluop1_source $end
     $var wire 1 ) io_ex_aluop2_source $end
     $var wire 1 * io_memory_read_enable $end
     $var wire 1 + io_memory_write_enable $end
     $var wire 2 , io_wb_reg_write_source [1:0] $end
     $var wire 1 # io_reg_write_enable $end
     $var wire 5 $ io_reg_write_address [4:0] $end
     $var wire 7 / opcode [6:0] $end
     $var wire 5 $ rd [4:0] $end
     $var wire 5 0 rs1 [4:0] $end
     $var wire 5 n rs2 [4:0] $end
    $upscope $end
    $scope module inst_fetch $end
     $var wire 1 [ clock $end
     $var wire 1 \ reset $end
     $var wire 1 4 io_jump_flag_id $end
     $var wire 32 5 io_jump_address_id [31:0] $end
     $var wire 32 ^ io_instruction_read_data [31:0] $end
     $var wire 1 g io_instruction_valid $end
     $var wire 32 ] io_instruction_address [31:0] $end
     $var wire 32 k io_instruction [31:0] $end
     $var wire 32 : pc [31:0] $end
    $upscope $end
    $scope module mem $end
     $var wire 32 6 io_alu_result [31:0] $end
     $var wire 32 3 io_reg2_data [31:0] $end
     $var wire 1 * io_memory_read_enable $end
     $var wire 1 + io_memory_write_enable $end
     $var wire 3 - io_funct3 [2:0] $end
     $var wire 32 l io_wb_memory_read_data [31:0] $end
     $var wire 32 6 io_memory_bundle_address [31:0] $end
     $var wire 32 ` io_memory_bundle_write_data [31:0] $end
     $var wire 1 a io_memory_bundle_write_enable $end
     $var wire 1 b io_memory_bundle_write_strobe_0 $end
     $var wire 1 c io_memory_bundle_write_strobe_1 $end
     $var wire 1 d io_memory_bundle_write_strobe_2 $end
     $var wire 1 e io_memory_bundle_write_strobe_3 $end
     $var wire 32 f io_memory_bundle_read_data [31:0] $end
     $var wire 2 9 mem_address_index [1:0] $end
    $upscope $end
    $scope module regs $end
     $var wire 1 [ clock $end
     $var wire 1 \ reset $end
     $var wire 1 # io_write_enable $end
     $var wire 5 $ io_write_address [4:0] $end
     $var wire 32 1 io_write_data [31:0] $end
     $var wire 5 % io_read_address1 [4:0] $end
     $var wire 5 & io_read_address2 [4:0] $end
     $var wire 32 2 io_read_data1 [31:0] $end
     $var wire 32 3 io_read_data2 [31:0] $end
     $var wire 5 i io_debug_read_address [4:0] $end
     $var wire 32 j io_debug_read_data [31:0] $end
     $var wire 32 ; registers_0 [31:0] $end
     $var wire 32 < registers_1 [31:0] $end
     $var wire 32 = registers_2 [31:0] $end
     $var wire 32 > registers_3 [31:0] $end
     $var wire 32 ? registers_4 [31:0] $end
     $var wire 32 @ registers_5 [31:0] $end
     $var wire 32 A registers_6 [31:0] $end
     $var wire 32 B registers_7 [31:0] $end
     $var wire 32 C registers_8 [31:0] $end
     $var wire 32 D registers_9 [31:0] $end
     $var wire 32 E registers_10 [31:0] $end
     $var wire 32 F registers_11 [31:0] $end
     $var wire 32 G registers_12 [31:0] $end
     $var wire 32 H registers_13 [31:0] $end
     $var wire 32 I registers_14 [31:0] $end
     $var wire 32 J registers_15 [31:0] $end
     $var wire 32 K registers_16 [31:0] $end
     $var wire 32 L registers_17 [31:0] $end
     $var wire 32 M registers_18 [31:0] $end
     $var wire 32 N registers_19 [31:0] $end
     $var wire 32 O registers_20 [31:0] $end
     $var wire 32 P registers_21 [31:0] $end
     $var wire 32 Q registers_22 [31:0] $end
     $var wire 32 R registers_23 [31:0] $end
     $var wire 32 S registers_24 [31:0] $end
     $var wire 32 T registers_25 [31:0] $end
     $var wire 32 U registers_26 [31:0] $end
     $var wire 32 V registers_27 [31:0] $end
     $var wire 32 W registers_28 [31:0] $end
     $var wire 32 X registers_29 [31:0] $end
     $var wire 32 Y registers_30 [31:0] $end
     $var wire 32 Z registers_31 [31:0] $end
    $upscope $end
    $scope module wb $end
     $var wire 32 ] io_instruction_address [31:0] $end
     $var wire 32 6 io_alu_result [31:0] $end
     $var wire 32 l io_memory_read_data [31:0] $end
     $var wire 2 , io_regs_write_source [1:0] $end
     $var wire 32 1 io_regs_write_data [31:0] $end
    $upscope $end
   $upscope $end
  $upscope $end
 $upscope $end
$enddefinitions $end


#0
1#
b00000 $
b00000 %
b00000 &
b00000000000000000000000000000000 '
0(
1)
0*
0+
b00 ,
b000 -
b00001 .
b0010011 /
b00000 0
b00000000000000000000000000000000 1
b00000000000000000000000000000000 2
b00000000000000000000000000000000 3
04
b00000000000000000000000000000000 5
b00000000000000000000000000000000 6
b00000000000000000000000000000000 7
b00000000000000000000000000000000 8
b00 9
b00000000000000000000000000000000 :
b00000000000000000000000000000000 ;
b00000000000000000000000000000000 <
b00000000000000000000000000000000 =
b00000000000000000000000000000000 >
b00000000000000000000000000000000 ?
b00000000000000000000000000000000 @
b00000000000000000000000000000000 A
b00000000000000000000000000000000 B
b00000000000000000000000000000000 C
b00000000000000000000000000000000 D
b00000000000000000000000000000000 E
b00000000000000000000000000000000 F
b00000000000000000000000000000000 G
b00000000000000000000000000000000 H
b00000000000000000000000000000000 I
b00000000000000000000000000000000 J
b00000000000000000000000000000000 K
b00000000000000000000000000000000 L
b00000000000000000000000000000000 M
b00000000000000000000000000000000 N
b00000000000000000000000000000000 O
b00000000000000000000000000000000 P
b00000000000000000000000000000000 Q
b00000000000000000000000000000000 R
b00000000000000000000000000000000 S
b00000000000000000000000000000000 T
b00000000000000000000000000000000 U
b00000000000000000000000000000000 V
b00000000000000000000000000000000 W
b00000000000000000000000000000000 X
b00000000000000000000000000000000 Y
b00000000000000000000000000000000 Z
0[
1\
b00000000000000000000000000000000 ]
b00000000000000000000000000000000 ^
b00000000000000000000000000000000 _
b00000000000000000000000000000000 `
0a
0b
0c
0d
0e
b00000000000000000000000000000000 f
0g
b000 h
b00000 i
b00000000000000000000000000000000 j
b00000000000000000000000000010011 k
b00000000000000000000000000000000 l
b0000000 m
b00000 n
#1
0#
b00000 .
b0000000 /
b00000000000000000001000000000000 5
b00000000000000000001000000000000 :
1[
b00000000000000000001000000000000 ]
1g
b00000000000000000000000000000000 k
#2
1#
b01011 $
1(
b00001 .
b0010111 /
b00000000000000000001000000000000 1
b00000000000000000001000000000000 6
b00000000000000000001000000000000 7
b00000000000000000000010110010111 ^
b00000000000000000001000000000000 _
b00000000000000000000010110010111 k
#3
0[
0\
b00000000000000000000010110010111 f
#4
#5
b00000000000000000001000000000100 1
b00000000000000000001000000000100 5
b00000000000000000001000000000100 6
b00000000000000000001000000000100 7
b00000000000000000001000000000100 :
b00000000000000000001000000000000 F
1[
b00000000000000000001000000000100 ]
b00000000000000000001000000000100 _
#6
b01011 %
b00000000000000000000000101001011 '
0(
1*
b01 ,
b010 -
b0000011 /
b01011 0
b00010100101101011010010110000011 1
b00000000000000000001000000000000 2
b00000000000000000001000101001111 5
b00000000000000000001000101001011 6
b00000000000000000001000000000000 7
b00000000000000000000000101001011 8
b11 9
b00010100101101011010010110000011 ^
b00000000000000000001000101001011 _
b00010100101101011010010110000011 f
b00010100101101011010010110000011 k
b00010100101101011010010110000011 l
b0001010 m
b01011 n
#7
b00000011000000000100001100000000 1
0[
b00000011000000000100001100000000 f
b00000011000000000100001100000000 l
#8
#9
b00000011000000000100001100000000 2
b00000000000000000001000101010011 5
b00000011000000000100010001001011 6
b00000011000000000100001100000000 7
b00000000000000000001000000001000 :
b00000011000000000100001100000000 F
1[
b00000000000000000001000000001000 ]
b00000011000000000100010001001011 _
#10
b00101 $
b00000 %
b00000000000000000000000000000000 '
1(
0*
b00 ,
b000 -
b0010111 /
b00000 0
b00000000000000000001000000001000 1
b00000000000000000000000000000000 2
b00000000000000000001000000001000 5
b00000000000000000001000000001000 6
b00000000000000000001000000001000 7
b00000000000000000000000000000000 8
b00 9
b00000000000000000000001010010111 ^
b00000000000000000001000000001000 _
b00000000000000000000000000000000 f
b00000000000000000000001010010111 k
b00000000000000000000000000000000 l
b0000000 m
b00000 n
#11
0[
b00000000000000000000001010010111 f
#12
#13
b00000000000000000001000000001100 1
b00000000000000000001000000001100 5
b00000000000000000001000000001100 6
b00000000000000000001000000001100 7
b00000000000000000001000000001100 :
b00000000000000000001000000001000 @
1[
b00000000000000000001000000001100 ]
b00000000000000000001000000001100 _
#14
b00101 %
b00000000000000000000000100111101 '
0(
b0010011 /
b00101 0
b00000000000000000001000101000101 1
b00000000000000000001000000001000 2
b00000000000000000001000101001001 5
b00000000000000000001000101000101 6
b00000000000000000001000000001000 7
b00000000000000000000000100111101 8
b01 9
b00010011110100101000001010010011 ^
b00000000000000000001000101000101 _
b00010011110100101000001010010011 f
b00010011110100101000001010010011 k
b0001001 m
b11101 n
#15
0[
b01000010000000000100000100000000 f
#16
#17
b00000000000000000001001010000010 1
b00000000000000000001000101000101 2
b00000000000000000001000101001101 5
b00000000000000000001001010000010 6
b00000000000000000001000101000101 7
b10 9
b00000000000000000001000000010000 :
b00000000000000000001000101000101 @
1[
b00000000000000000001000000010000 ]
b00000000000000000001001010000010 _
#18
b00110 $
b00000 %
b00000000000000000000000000000000 '
1(
b0010111 /
b00000 0
b00000000000000000001000000010000 1
b00000000000000000000000000000000 2
b00000000000000000001000000010000 5
b00000000000000000001000000010000 6
b00000000000000000001000000010000 7
b00000000000000000000000000000000 8
b00 9
b00000000000000000000001100010111 ^
b00000000000000000001000000010000 _
b00000000000000000000000000000000 f
b00000000000000000000001100010111 k
b0000000 m
b00000 n
#19
0[
b00000000000000000000001100010111 f
#20
#21
b00000000000000000001000000010100 1
b00000000000000000001000000010100 5
b00000000000000000001000000010100 6
b00000000000000000001000000010100 7
b00000000000000000001000000010100 :
b00000000000000000001000000010000 A
1[
b00000000000000000001000000010100 ]
b00000000000000000001000000010100 _
#22
b00110 %
b00000000000000000000000100111001 '
0(
b0010011 /
b00110 0
b00000000000000000001000101001001 1
b00000000000000000001000000010000 2
b00000000000000000001000101001101 5
b00000000000000000001000101001001 6
b00000000000000000001000000010000 7
b00000000000000000000000100111001 8
b01 9
b00010011100100110000001100010011 ^
b00000000000000000001000101001001 _
b00010011100100110000001100010011 f
b00010011100100110000001100010011 k
b0001001 m
b11001 n
#23
0[
b00000011000000000100001100000000 f
#24
#25
b00000000000000000001001010000010 1
b00000000000000000001000101001001 2
b00000000000000000001000101010001 5
b00000000000000000001001010000010 6
b00000000000000000001000101001001 7
b10 9
b00000000000000000001000000011000 :
b00000000000000000001000101001001 A
1[
b00000000000000000001000000011000 ]
b00000000000000000001001010000010 _
#26
b00111 $
b00000 %
b00000000000000000000000000000000 '
1(
b0010111 /
b00000 0
b00000000000000000001000000011000 1
b00000000000000000000000000000000 2
b00000000000000000001000000011000 5
b00000000000000000001000000011000 6
b00000000000000000001000000011000 7
b00000000000000000000000000000000 8
b00 9
b00000000000000000000001110010111 ^
b00000000000000000001000000011000 _
b00000000000000000000000000000000 f
b00000000000000000000001110010111 k
b0000000 m
b00000 n
#27
0[
b00000000000000000000001110010111 f
#28
#29
b00000000000000000001000000011100 1
b00000000000000000001000000011100 5
b00000000000000000001000000011100 6
b00000000000000000001000000011100 7
b00000000000000000001000000011100 :
b00000000000000000001000000011000 B
1[
b00000000000000000001000000011100 ]
b00000000000000000001000000011100 _
#30
b00111 %
b00000000000000000000000100101111 '
0(
b0010011 /
b00111 0
b00000000000000000001000101000111 1
b00000000000000000001000000011000 2
b00000000000000000001000101001011 5
b00000000000000000001000101000111 6
b00000000000000000001000000011000 7
b00000000000000000000000100101111 8
b11 9
b00010010111100111000001110010011 ^
b00000000000000000001000101000111 _
b00010010111100111000001110010011 f
b00010010111100111000001110010011 k
b0001001 m
b01111 n
#31
0[
b01000010000000000100000100000000 f
#32
#33
b00000000000000000001001001110110 1
b00000000000000000001000101000111 2
b00000000000000000001000101001111 5
b00000000000000000001001001110110 6
b00000000000000000001000101000111 7
b10 9
b00000000000000000001000000100000 :
b00000000000000000001000101000111 B
1[
b00000000000000000001000000100000 ]
b00000000000000000001001001110110 _
#34
b01100 $
b00101 %
b00000000000000000000000000000000 '
1*
b01 ,
b100 -
b0000011 /
b00101 0
b00000000000000000000000000000000 1
b00000000000000000001000101000101 2
b00000000000000000001000000100000 5
b00000000000000000001000101000101 6
b00000000000000000001000101000101 7
b00000000000000000000000000000000 8
b01 9
b00000000000000101100011000000011 ^
b00000000000000000001000101000101 _
b00000000000000000000000000000000 f
b00000000000000101100011000000011 k
b0000000 m
b00000 n
#35
b00000000000000000000000001000001 1
0[
b01000010000000000100000100000000 f
b00000000000000000000000001000001 l
#36
#37
b00000000000000000001000000100100 5
b00000000000000000001000000100100 :
b00000000000000000000000001000001 G
1[
b00000000000000000001000000100100 ]
#38
b01101 $
b00111 %
b00111 0
b00000000000000000000000001000010 1
b00000000000000000001000101000111 2
b00000000000000000001000101000111 6
b00000000000000000001000101000111 7
b11 9
b00000000000000111100011010000011 ^
b00000000000000000001000101000111 _
b00000000000000111100011010000011 k
b00000000000000000000000001000010 l
#39
0[
#40
#41
b00000000000000000001000000101000 5
b00000000000000000001000000101000 :
b00000000000000000000000001000010 H
1[
b00000000000000000001000000101000 ]
#42
b01110 $
b00110 %
b00110 0
b00000000000000000000000001000001 1
b00000000000000000001000101001001 2
b00000000000000000001000101001001 6
b00000000000000000001000101001001 7
b01 9
b00000000000000110100011100000011 ^
b00000000000000000001000101001001 _
b00000000000000110100011100000011 k
b00000000000000000000000001000001 l
#43
b00000000000000000000000001000011 1
0[
b00000011000000000100001100000000 f
b00000000000000000000000001000011 l
#44
#45
b00000000000000000001000000101100 5
b00000000000000000001000000101100 :
b00000000000000000000000001000011 I
1[
b00000000000000000001000000101100 ]
#46
b00001 $
b00000 %
b00000000000000000000000000001100 '
1(
0*
b11 ,
b000 -
b1101111 /
b00000 0
b00000000000000000001000000110000 1
b00000000000000000000000000000000 2
14
b00000000000000000001000000111000 5
b00000000000000000001000000111000 6
b00000000000000000001000000101100 7
b00000000000000000000000000001100 8
b00 9
b00000000110000000000000011101111 ^
b00000000000000000001000000111000 _
b00000000110000000000000011101111 k
b00000000000000000000000000000000 l
b01100 n
#47
0[
b11111110110000010000000100010011 f
#48
#49
b00000000000000000001000000111100 1
b00000000000000000001000001000100 5
b00000000000000000001000001000100 6
b00000000000000000001000000111000 7
b00000000000000000001000000111000 :
b00000000000000000001000000110000 <
1[
b00000000000000000001000000111000 ]
b00000000000000000001000001000100 _
#50
b00010 $
b00010 %
b11111111111111111111111111101100 '
0(
b00 ,
b0010011 /
b00010 0
b11111111111111111111111111101100 1
04
b00000000000000000001000000100100 5
b11111111111111111111111111101100 6
b00000000000000000000000000000000 7
b11111111111111111111111111101100 8
b11111110110000010000000100010011 ^
b00011111111111111111111111101100 _
b00000000110000010010010000100011 f
b11111110110000010000000100010011 k
b1111111 m
#51
0[
b00000000000000000000000000000000 f
#52
#53
b11111111111111111111111111011000 1
b11111111111111111111111111101100 2
b00000000000000000001000000101000 5
b11111111111111111111111111011000 6
b11111111111111111111111111101100 7
b00000000000000000001000000111100 :
b11111111111111111111111111101100 =
1[
b00000000000000000001000000111100 ]
b00011111111111111111111111011000 _
#54
0#
b00000 $
b00001 &
b00000000000000000000000000000000 '
1+
b010 -
b0100011 /
b11111111111111111111111111101100 1
b00000000000000000001000000110000 3
b00000000000000000001000000111100 5
b11111111111111111111111111101100 6
b00000000000000000000000000000000 8
b00000000000100010010000000100011 ^
b00011111111111111111111111101100 _
b00000000000000000001000000110000 `
1a
1b
1c
1d
1e
b00000000000100010010000000100011 k
b0000000 m
b00001 n
#55
0[
#56
#57
b00000000000000000001000001000000 5
b00000000000000000001000001000000 :
1[
b00000000000000000001000001000000 ]
#58
b00100 $
b01011 &
b00000000000000000000000000000100 '
b11111111111111111111111111110000 1
b00000011000000000100001100000000 3
b00000000000000000001000001000100 5
b11111111111111111111111111110000 6
b00000000000000000000000000000100 8
b00000000101100010010001000100011 ^
b00011111111111111111111111110000 _
b00000011000000000100001100000000 `
b00000000101100010010001000100011 k
b01011 n
#59
0[
#60
#61
b00000000000000000001000001001000 5
b00000000000000000001000001000100 :
1[
b00000000000000000001000001000100 ]
#62
b01000 $
b01100 &
b00000000000000000000000000001000 '
b11111111111111111111111111110100 1
b00000000000000000000000001000001 3
b00000000000000000001000001001100 5
b11111111111111111111111111110100 6
b00000000000000000000000000001000 8
b00000000110000010010010000100011 ^
b00011111111111111111111111110100 _
b00000000000000000000000001000001 `
b00000000110000010010010000100011 k
b01100 n
#63
0[
#64
#65
b00000000000000000001000001010000 5
b00000000000000000001000001001000 :
1[
b00000000000000000001000001001000 ]
#66
b01100 $
b01101 &
b00000000000000000000000000001100 '
b11111111111111111111111111111000 1
b00000000000000000000000001000010 3
b00000000000000000001000001010100 5
b11111111111111111111111111111000 6
b00000000000000000000000000001100 8
b00000000110100010010011000100011 ^
b00011111111111111111111111111000 _
b00000000000000000000000001000010 `
b00000000110100010010011000100011 k
b01101 n
#67
0[
#68
#69
b00000000000000000001000001011000 5
b00000000000000000001000001001100 :
1[
b00000000000000000001000001001100 ]
#70
b10000 $
b01110 &
b00000000000000000000000000010000 '
b11111111111111111111111111111100 1
b00000000000000000000000001000011 3
b00000000000000000001000001011100 5
b11111111111111111111111111111100 6
b00000000000000000000000000010000 8
b00000000111000010010100000100011 ^
b00011111111111111111111111111100 _
b00000000000000000000000001000011 `
b00000000111000010010100000100011 k
b01110 n
#71
0[
#72
#73
b00000000000000000001000001100000 5
b00000000000000000001000001010000 :
1[
b00000000000000000001000001010000 ]
#74
1#
b00101 $
b01011 %
b00000 &
b00000000000000000000010010000000 '
0+
b001 -
b00011 .
b0010011 /
b01011 0
b00000011000000000100001100000000 1
b00000011000000000100001100000000 2
b00000000000000000000000000000000 3
b00000000000000000001010011010000 5
b00000011000000000100001100000000 6
b00000011000000000100001100000000 7
b00000000000000000000010010000000 8
b01001000000001011001001010010011 ^
b00000011000000000100001100000000 _
b00000000000000000000000000000000 `
0a
0b
0c
0d
0e
b01001000000001011001001010010011 k
b0100100 m
b00000 n
#75
0[
#76
#77
b00000000000000000001010011010100 5
b00000000000000000001000001010100 :
b00000011000000000100001100000000 @
1[
b00000000000000000001000001010100 ]
#78
0#
b10000 $
b00101 %
b00000000000000000000000001010000 '
1(
b000 -
b00001 .
b1100011 /
b00101 0
b00000000000000000001000010100100 1
b00000000000000000001000010100100 5
b00000000000000000001000010100100 6
b00000000000000000001000001010100 7
b00000000000000000000000001010000 8
b00000100000000101000100001100011 ^
b00000000000000000001000010100100 _
b00000100000000101000100001100011 k
b0000010 m
#79
0[
b00000000010000010010010110000011 f
#80
#81
b00000000000000000001000010101000 1
b00000000000000000001000010101000 5
b00000000000000000001000010101000 6
b00000000000000000001000001011000 7
b00000000000000000001000001011000 :
1[
b00000000000000000001000001011000 ]
b00000000000000000001000010101000 _
#82
1#
b01011 $
b00010 %
b00000000000000000000000000000100 '
0(
1*
b01 ,
b010 -
b0000011 /
b00010 0
b00000000100000010100011000000011 1
b11111111111111111111111111101100 2
b00000000000000000001000001011100 5
b11111111111111111111111111110000 6
b11111111111111111111111111101100 7
b00000000000000000000000000000100 8
b00000000010000010010010110000011 ^
b00011111111111111111111111110000 _
b00000000100000010100011000000011 f
b00000000010000010010010110000011 k
b00000000100000010100011000000011 l
b0000000 m
b00100 n
#83
b00000000000000000000000000000000 1
0[
b00000000000000000000000000000000 f
b00000000000000000000000000000000 l
#84
#85
b00000000000000000001000001100000 5
b00000000000000000001000001011100 :
b00000000000000000000000000000000 F
1[
b00000000000000000001000001011100 ]
#86
b01011 %
b11111111111111111111111111111111 '
0*
b00 ,
b000 -
b0010011 /
b01011 0
b11111111111111111111111111111111 1
b00000000000000000000000000000000 2
b00000000000000000001000001011011 5
b11111111111111111111111111111111 6
b00000000000000000000000000000000 7
b11111111111111111111111111111111 8
b11 9
b11111111111101011000010110010011 ^
b00011111111111111111111111111111 _
b11111111111101011000010110010011 k
b1111111 m
b11111 n
#87
0[
#88
#89
b11111111111111111111111111111110 1
b11111111111111111111111111111111 2
b00000000000000000001000001011111 5
b11111111111111111111111111111110 6
b11111111111111111111111111111111 7
b10 9
b00000000000000000001000001100000 :
b11111111111111111111111111111111 F
1[
b00000000000000000001000001100000 ]
b00011111111111111111111111111110 _
#90
b01100 $
b00010 %
b00000000000000000000000000001000 '
1*
b01 ,
b100 -
b0000011 /
b00010 0
b00000000000000000000000000000000 1
b11111111111111111111111111101100 2
b00000000000000000001000001101000 5
b11111111111111111111111111110100 6
b11111111111111111111111111101100 7
b00000000000000000000000000001000 8
b00 9
b00000000100000010100011000000011 ^
b00011111111111111111111111110100 _
b00000000100000010100011000000011 k
b0000000 m
b01000 n
#91
0[
#92
#93
b00000000000000000001000001101100 5
b00000000000000000001000001100100 :
b00000000000000000000000000000000 G
1[
b00000000000000000001000001100100 ]
#94
b01101 $
b00000000000000000000000000010000 '
b00000000000000000001000001110100 5
b11111111111111111111111111111100 6
b00000000000000000000000000010000 8
b00000001000000010100011010000011 ^
b00011111111111111111111111111100 _
b00000001000000010100011010000011 k
b10000 n
#95
0[
#96
#97
b00000000000000000001000001111000 5
b00000000000000000001000001101000 :
b00000000000000000000000000000000 H
1[
b00000000000000000001000001101000 ]
#98
b01110 $
b00000000000000000000000000001100 '
b00000000000000000001000001110100 5
b11111111111111111111111111111000 6
b00000000000000000000000000001100 8
b00000000110000010100011100000011 ^
b00011111111111111111111111111000 _
b00000000110000010100011100000011 k
b01100 n
#99
0[
#100
#101
b00000000000000000001000001111000 5
b00000000000000000001000001101100 :
b00000000000000000000000000000000 I
1[
b00000000000000000001000001101100 ]
