Q4_A.vcd
$version Generated by VerilatedVcd $end
$timescale 1ps $end
 $scope module TOP $end
  $var wire 1 [ clock $end
  $var wire 1 \ reset $end
  $var wire 32 ] io_instruction_address [31:0] $end
  $var wire 32 ^ io_instruction [31:0] $end
  $var wire 32 _ io_memory_bundle_address [31:0] $end
  $var wire 32 ` io_memory_bundle_write_data [31:0] $end
  $var wire 1 a io_memory_bundle_write_enable $end
  $var wire 1 b io_memory_bundle_write_strobe_0 $end
  $var wire 1 c io_memory_bundle_write_strobe_1 $end
  $var wire 1 d io_memory_bundle_write_strobe_2 $end
  $var wire 1 e io_memory_bundle_write_strobe_3 $end
  $var wire 32 f io_memory_bundle_read_data [31:0] $end
  $var wire 1 g io_instruction_valid $end
  $var wire 3 h io_deviceSelect [2:0] $end
  $var wire 5 i io_debug_read_address [4:0] $end
  $var wire 32 j io_debug_read_data [31:0] $end
  $scope module Top $end
   $var wire 1 [ clock $end
   $var wire 1 \ reset $end
   $var wire 32 ] io_instruction_address [31:0] $end
   $var wire 32 ^ io_instruction [31:0] $end
   $var wire 32 _ io_memory_bundle_address [31:0] $end
   $var wire 32 ` io_memory_bundle_write_data [31:0] $end
   $var wire 1 a io_memory_bundle_write_enable $end
   $var wire 1 b io_memory_bundle_write_strobe_0 $end
   $var wire 1 c io_memory_bundle_write_strobe_1 $end
   $var wire 1 d io_memory_bundle_write_strobe_2 $end
   $var wire 1 e io_memory_bundle_write_strobe_3 $end
   $var wire 32 f io_memory_bundle_read_data [31:0] $end
   $var wire 1 g io_instruction_valid $end
   $var wire 3 h io_deviceSelect [2:0] $end
   $var wire 5 i io_debug_read_address [4:0] $end
   $var wire 32 j io_debug_read_data [31:0] $end
   $var wire 1 [ cpu_clock $end
   $var wire 1 \ cpu_reset $end
   $var wire 32 ] cpu_io_instruction_address [31:0] $end
   $var wire 32 ^ cpu_io_instruction [31:0] $end
   $var wire 32 _ cpu_io_memory_bundle_address [31:0] $end
   $var wire 32 ` cpu_io_memory_bundle_write_data [31:0] $end
   $var wire 1 a cpu_io_memory_bundle_write_enable $end
   $var wire 1 b cpu_io_memory_bundle_write_strobe_0 $end
   $var wire 1 c cpu_io_memory_bundle_write_strobe_1 $end
   $var wire 1 d cpu_io_memory_bundle_write_strobe_2 $end
   $var wire 1 e cpu_io_memory_bundle_write_strobe_3 $end
   $var wire 32 f cpu_io_memory_bundle_read_data [31:0] $end
   $var wire 1 g cpu_io_instruction_valid $end
   $var wire 5 i cpu_io_debug_read_address [4:0] $end
   $var wire 32 j cpu_io_debug_read_data [31:0] $end
   $scope module cpu $end
    $var wire 1 [ clock $end
    $var wire 1 \ reset $end
    $var wire 32 ] io_instruction_address [31:0] $end
    $var wire 32 ^ io_instruction [31:0] $end
    $var wire 32 _ io_memory_bundle_address [31:0] $end
    $var wire 32 ` io_memory_bundle_write_data [31:0] $end
    $var wire 1 a io_memory_bundle_write_enable $end
    $var wire 1 b io_memory_bundle_write_strobe_0 $end
    $var wire 1 c io_memory_bundle_write_strobe_1 $end
    $var wire 1 d io_memory_bundle_write_strobe_2 $end
    $var wire 1 e io_memory_bundle_write_strobe_3 $end
    $var wire 32 f io_memory_bundle_read_data [31:0] $end
    $var wire 1 g io_instruction_valid $end
    $var wire 5 i io_debug_read_address [4:0] $end
    $var wire 32 j io_debug_read_data [31:0] $end
    $var wire 1 [ regs_clock $end
    $var wire 1 \ regs_reset $end
    $var wire 1 # regs_io_write_enable $end
    $var wire 5 $ regs_io_write_address [4:0] $end
    $var wire 32 1 regs_io_write_data [31:0] $end
    $var wire 5 % regs_io_read_address1 [4:0] $end
    $var wire 5 & regs_io_read_address2 [4:0] $end
    $var wire 32 2 regs_io_read_data1 [31:0] $end
    $var wire 32 3 regs_io_read_data2 [31:0] $end
    $var wire 5 i regs_io_debug_read_address [4:0] $end
    $var wire 32 j regs_io_debug_read_data [31:0] $end
    $var wire 1 [ inst_fetch_clock $end
    $var wire 1 \ inst_fetch_reset $end
    $var wire 1 4 inst_fetch_io_jump_flag_id $end
    $var wire 32 5 inst_fetch_io_jump_address_id [31:0] $end
    $var wire 32 ^ inst_fetch_io_instruction_read_data [31:0] $end
    $var wire 1 g inst_fetch_io_instruction_valid $end
    $var wire 32 ] inst_fetch_io_instruction_address [31:0] $end
    $var wire 32 k inst_fetch_io_instruction [31:0] $end
    $var wire 32 k id_io_instruction [31:0] $end
    $var wire 5 % id_io_regs_reg1_read_address [4:0] $end
    $var wire 5 & id_io_regs_reg2_read_address [4:0] $end
    $var wire 32 ' id_io_ex_immediate [31:0] $end
    $var wire 1 ( id_io_ex_aluop1_source $end
    $var wire 1 ) id_io_ex_aluop2_source $end
    $var wire 1 * id_io_memory_read_enable $end
    $var wire 1 + id_io_memory_write_enable $end
    $var wire 2 , id_io_wb_reg_write_source [1:0] $end
    $var wire 1 # id_io_reg_write_enable $end
    $var wire 5 $ id_io_reg_write_address [4:0] $end
    $var wire 32 k ex_io_instruction [31:0] $end
    $var wire 32 ] ex_io_instruction_address [31:0] $end
    $var wire 32 2 ex_io_reg1_data [31:0] $end
    $var wire 32 3 ex_io_reg2_data [31:0] $end
    $var wire 32 ' ex_io_immediate [31:0] $end
    $var wire 1 ( ex_io_aluop1_source $end
    $var wire 1 ) ex_io_aluop2_source $end
    $var wire 32 6 ex_io_mem_alu_result [31:0] $end
    $var wire 1 4 ex_io_if_jump_flag $end
    $var wire 32 5 ex_io_if_jump_address [31:0] $end
    $var wire 32 6 mem_io_alu_result [31:0] $end
    $var wire 32 3 mem_io_reg2_data [31:0] $end
    $var wire 1 * mem_io_memory_read_enable $end
    $var wire 1 + mem_io_memory_write_enable $end
    $var wire 3 - mem_io_funct3 [2:0] $end
    $var wire 32 l mem_io_wb_memory_read_data [31:0] $end
    $var wire 32 6 mem_io_memory_bundle_address [31:0] $end
    $var wire 32 ` mem_io_memory_bundle_write_data [31:0] $end
    $var wire 1 a mem_io_memory_bundle_write_enable $end
    $var wire 1 b mem_io_memory_bundle_write_strobe_0 $end
    $var wire 1 c mem_io_memory_bundle_write_strobe_1 $end
    $var wire 1 d mem_io_memory_bundle_write_strobe_2 $end
    $var wire 1 e mem_io_memory_bundle_write_strobe_3 $end
    $var wire 32 f mem_io_memory_bundle_read_data [31:0] $end
    $var wire 32 ] wb_io_instruction_address [31:0] $end
    $var wire 32 6 wb_io_alu_result [31:0] $end
    $var wire 32 l wb_io_memory_read_data [31:0] $end
    $var wire 2 , wb_io_regs_write_source [1:0] $end
    $var wire 32 1 wb_io_regs_write_data [31:0] $end
    $scope module ex $end
     $var wire 32 k io_instruction [31:0] $end
     $var wire 32 ] io_instruction_address [31:0] $end
     $var wire 32 2 io_reg1_data [31:0] $end
     $var wire 32 3 io_reg2_data [31:0] $end
     $var wire 32 ' io_immediate [31:0] $end
     $var wire 1 ( io_aluop1_source $end
     $var wire 1 ) io_aluop2_source $end
     $var wire 32 6 io_mem_alu_result [31:0] $end
     $var wire 1 4 io_if_jump_flag $end
     $var wire 32 5 io_if_jump_address [31:0] $end
     $var wire 5 . alu_io_func [4:0] $end
     $var wire 32 7 alu_io_op1 [31:0] $end
     $var wire 32 8 alu_io_op2 [31:0] $end
     $var wire 32 6 alu_io_result [31:0] $end
     $var wire 7 / alu_ctrl_io_opcode [6:0] $end
     $var wire 3 - alu_ctrl_io_funct3 [2:0] $end
     $var wire 7 m alu_ctrl_io_funct7 [6:0] $end
     $var wire 5 . alu_ctrl_io_alu_funct [4:0] $end
     $var wire 7 / opcode [6:0] $end
     $var wire 3 - funct3 [2:0] $end
     $scope module alu $end
      $var wire 5 . io_func [4:0] $end
      $var wire 32 7 io_op1 [31:0] $end
      $var wire 32 8 io_op2 [31:0] $end
      $var wire 32 6 io_result [31:0] $end
     $upscope $end
     $scope module alu_ctrl $end
      $var wire 7 / io_opcode [6:0] $end
      $var wire 3 - io_funct3 [2:0] $end
      $var wire 7 m io_funct7 [6:0] $end
      $var wire 5 . io_alu_funct [4:0] $end
     $upscope $end
    $upscope $end
    $scope module id $end
     $var wire 32 k io_instruction [31:0] $end
     $var wire 5 % io_regs_reg1_read_address [4:0] $end
     $var wire 5 & io_regs_reg2_read_address [4:0] $end
     $var wire 32 ' io_ex_immediate [31:0] $end
     $var wire 1 ( io_ex_aluop1_source $end
     $var wire 1 ) io_ex_aluop2_source $end
     $var wire 1 * io_memory_read_enable $end
     $var wire 1 + io_memory_write_enable $end
     $var wire 2 , io_wb_reg_write_source [1:0] $end
     $var wire 1 # io_reg_write_enable $end
     $var wire 5 $ io_reg_write_address [4:0] $end
     $var wire 7 / opcode [6:0] $end
     $var wire 5 $ rd [4:0] $end
     $var wire 5 0 rs1 [4:0] $end
     $var wire 5 n rs2 [4:0] $end
    $upscope $end
    $scope module inst_fetch $end
     $var wire 1 [ clock $end
     $var wire 1 \ reset $end
     $var wire 1 4 io_jump_flag_id $end
     $var wire 32 5 io_jump_address_id [31:0] $end
     $var wire 32 ^ io_instruction_read_data [31:0] $end
     $var wire 1 g io_instruction_valid $end
     $var wire 32 ] io_instruction_address [31:0] $end
     $var wire 32 k io_instruction [31:0] $end
     $var wire 32 : pc [31:0] $end
    $upscope $end
    $scope module mem $end
     $var wire 32 6 io_alu_result [31:0] $end
     $var wire 32 3 io_reg2_data [31:0] $end
     $var wire 1 * io_memory_read_enable $end
     $var wire 1 + io_memory_write_enable $end
     $var wire 3 - io_funct3 [2:0] $end
     $var wire 32 l io_wb_memory_read_data [31:0] $end
     $var wire 32 6 io_memory_bundle_address [31:0] $end
     $var wire 32 ` io_memory_bundle_write_data [31:0] $end
     $var wire 1 a io_memory_bundle_write_enable $end
     $var wire 1 b io_memory_bundle_write_strobe_0 $end
     $var wire 1 c io_memory_bundle_write_strobe_1 $end
     $var wire 1 d io_memory_bundle_write_strobe_2 $end
     $var wire 1 e io_memory_bundle_write_strobe_3 $end
     $var wire 32 f io_memory_bundle_read_data [31:0] $end
     $var wire 2 9 mem_address_index [1:0] $end
    $upscope $end
    $scope module regs $end
     $var wire 1 [ clock $end
     $var wire 1 \ reset $end
     $var wire 1 # io_write_enable $end
     $var wire 5 $ io_write_address [4:0] $end
     $var wire 32 1 io_write_data [31:0] $end
     $var wire 5 % io_read_address1 [4:0] $end
     $var wire 5 & io_read_address2 [4:0] $end
     $var wire 32 2 io_read_data1 [31:0] $end
     $var wire 32 3 io_read_data2 [31:0] $end
     $var wire 5 i io_debug_read_address [4:0] $end
     $var wire 32 j io_debug_read_data [31:0] $end
     $var wire 32 ; registers_0 [31:0] $end
     $var wire 32 < registers_1 [31:0] $end
     $var wire 32 = registers_2 [31:0] $end
     $var wire 32 > registers_3 [31:0] $end
     $var wire 32 ? registers_4 [31:0] $end
     $var wire 32 @ registers_5 [31:0] $end
     $var wire 32 A registers_6 [31:0] $end
     $var wire 32 B registers_7 [31:0] $end
     $var wire 32 C registers_8 [31:0] $end
     $var wire 32 D registers_9 [31:0] $end
     $var wire 32 E registers_10 [31:0] $end
     $var wire 32 F registers_11 [31:0] $end
     $var wire 32 G registers_12 [31:0] $end
     $var wire 32 H registers_13 [31:0] $end
     $var wire 32 I registers_14 [31:0] $end
     $var wire 32 J registers_15 [31:0] $end
     $var wire 32 K registers_16 [31:0] $end
     $var wire 32 L registers_17 [31:0] $end
     $var wire 32 M registers_18 [31:0] $end
     $var wire 32 N registers_19 [31:0] $end
     $var wire 32 O registers_20 [31:0] $end
     $var wire 32 P registers_21 [31:0] $end
     $var wire 32 Q registers_22 [31:0] $end
     $var wire 32 R registers_23 [31:0] $end
     $var wire 32 S registers_24 [31:0] $end
     $var wire 32 T registers_25 [31:0] $end
     $var wire 32 U registers_26 [31:0] $end
     $var wire 32 V registers_27 [31:0] $end
     $var wire 32 W registers_28 [31:0] $end
     $var wire 32 X registers_29 [31:0] $end
     $var wire 32 Y registers_30 [31:0] $end
     $var wire 32 Z registers_31 [31:0] $end
    $upscope $end
    $scope module wb $end
     $var wire 32 ] io_instruction_address [31:0] $end
     $var wire 32 6 io_alu_result [31:0] $end
     $var wire 32 l io_memory_read_data [31:0] $end
     $var wire 2 , io_regs_write_source [1:0] $end
     $var wire 32 1 io_regs_write_data [31:0] $end
    $upscope $end
   $upscope $end
  $upscope $end
 $upscope $end
$enddefinitions $end


#0
1#
b00000 $
b00000 %
b00000 &
b00000000000000000000000000000000 '
0(
1)
0*
0+
b00 ,
b000 -
b00001 .
b0010011 /
b00000 0
b00000000000000000000000000000000 1
b00000000000000000000000000000000 2
b00000000000000000000000000000000 3
04
b00000000000000000000000000000000 5
b00000000000000000000000000000000 6
b00000000000000000000000000000000 7
b00000000000000000000000000000000 8
b00 9
b00000000000000000000000000000000 :
b00000000000000000000000000000000 ;
b00000000000000000000000000000000 <
b00000000000000000000000000000000 =
b00000000000000000000000000000000 >
b00000000000000000000000000000000 ?
b00000000000000000000000000000000 @
b00000000000000000000000000000000 A
b00000000000000000000000000000000 B
b00000000000000000000000000000000 C
b00000000000000000000000000000000 D
b00000000000000000000000000000000 E
b00000000000000000000000000000000 F
b00000000000000000000000000000000 G
b00000000000000000000000000000000 H
b00000000000000000000000000000000 I
b00000000000000000000000000000000 J
b00000000000000000000000000000000 K
b00000000000000000000000000000000 L
b00000000000000000000000000000000 M
b00000000000000000000000000000000 N
b00000000000000000000000000000000 O
b00000000000000000000000000000000 P
b00000000000000000000000000000000 Q
b00000000000000000000000000000000 R
b00000000000000000000000000000000 S
b00000000000000000000000000000000 T
b00000000000000000000000000000000 U
b00000000000000000000000000000000 V
b00000000000000000000000000000000 W
b00000000000000000000000000000000 X
b00000000000000000000000000000000 Y
b00000000000000000000000000000000 Z
0[
1\
b00000000000000000000000000000000 ]
b00000000000000000000000000000000 ^
b00000000000000000000000000000000 _
b00000000000000000000000000000000 `
0a
0b
0c
0d
0e
b00000000000000000000000000000000 f
0g
b000 h
b00000 i
b00000000000000000000000000000000 j
b00000000000000000000000000010011 k
b00000000000000000000000000000000 l
b0000000 m
b00000 n
#1
0#
b00000 .
b0000000 /
b00000000000000000001000000000000 5
b00000000000000000001000000000000 :
1[
b00000000000000000001000000000000 ]
1g
b00000000000000000000000000000000 k
#2
1#
b01010 $
b00000000000000000000000000000101 '
b00001 .
b0010011 /
b00000000000000000000000000000101 1
b00000000000000000001000000000101 5
b00000000000000000000000000000101 6
b00000000000000000000000000000101 8
b01 9
b00000000010100000000010100010011 ^
b00000000000000000000000000000101 _
b00000000010100000000010100010011 k
b00101 n
#3
0[
0\
#4
#5
b00000000000000000001000000001001 5
b00000000000000000001000000000100 :
b00000000000000000000000000000101 E
1[
b00000000000000000001000000000100 ]
#6
b01011 $
b00000000000000000000000000000000 '
b00000000000000000000000000000000 1
b00000000000000000001000000000100 5
b00000000000000000000000000000000 6
b00000000000000000000000000000000 8
b00 9
b00000000000000000000010110010011 ^
b00000000000000000000000000000000 _
b00000000000000000000010110010011 k
b00000 n
#7
0[
#8
#9
b00000000000000000001000000001000 5
b00000000000000000001000000001000 :
1[
b00000000000000000001000000001000 ]
#10
0#
b01100 $
b01010 &
b00000000000000000000000001001100 '
1(
b101 -
b1100011 /
b00000000000000000001000001010100 1
b00000000000000000000000000000101 3
b00000000000000000001000001010100 5
b00000000000000000001000001010100 6
b00000000000000000001000000001000 7
b00000000000000000000000001001100 8
b00000100101000000101011001100011 ^
b00000000000000000001000001010100 _
b00000100101000000101011001100011 k
b0000010 m
b01010 n
#11
0[
b00000000000001011000010100110011 f
#12
#13
b00000000000000000001000001011000 1
b00000000000000000001000001011000 5
b00000000000000000001000001011000 6
b00000000000000000001000000001100 7
b00000000000000000001000000001100 :
1[
b00000000000000000001000000001100 ]
b00000000000000000001000001011000 _
#14
1#
b00101 $
b01010 %
b00000 &
b00000000000000000000000000000000 '
0(
0)
b000 -
b0110011 /
b01010 0
b00000000000000000000000000000101 1
b00000000000000000000000000000101 2
b00000000000000000000000000000000 3
b00000000000000000001000000001100 5
b00000000000000000000000000000101 6
b00000000000000000000000000000101 7
b00000000000000000000000000000000 8
b01 9
b00000000000001010000001010110011 ^
b00000000000000000000000000000101 _
b00000000000000001000000001100111 f
b00000000000001010000001010110011 k
b0000000 m
b00000 n
#15
0[
b00000000000000000000000000000000 f
#16
#17
b00000000000000000001000000010000 5
b00000000000000000001000000010000 :
b00000000000000000000000000000101 @
1[
b00000000000000000001000000010000 ]
#18
b00010 $
b00010 %
b11111111111111111111111111110100 '
1)
b0010011 /
b00010 0
b11111111111111111111111111110100 1
b00000000000000000000000000000000 2
b00000000000000000001000000000100 5
b11111111111111111111111111110100 6
b00000000000000000000000000000000 7
b11111111111111111111111111110100 8
b00 9
b11111111010000010000000100010011 ^
b00011111111111111111111111110100 _
b11111111010000010000000100010011 k
b1111111 m
b10100 n
#19
0[
#20
#21
b11111111111111111111111111101000 1
b11111111111111111111111111110100 2
b00000000000000000001000000001000 5
b11111111111111111111111111101000 6
b11111111111111111111111111110100 7
b00000000000000000001000000010100 :
b11111111111111111111111111110100 =
1[
b00000000000000000001000000010100 ]
b00011111111111111111111111101000 _
#22
0#
b00000 $
b01011 &
b00000000000000000000000000000000 '
1+
b010 -
b0100011 /
b11111111111111111111111111110100 1
b00000000000000000001000000010100 5
b11111111111111111111111111110100 6
b00000000000000000000000000000000 8
b00000000101100010010000000100011 ^
b00011111111111111111111111110100 _
1a
1b
1c
1d
1e
b00000000101100010010000000100011 k
b0000000 m
b01011 n
#23
0[
#24
#25
b00000000000000000001000000011000 5
b00000000000000000001000000011000 :
1[
b00000000000000000001000000011000 ]
#26
b00100 $
b00101 &
b00000000000000000000000000000100 '
b11111111111111111111111111111000 1
b00000000000000000000000000000101 3
b00000000000000000001000000011100 5
b11111111111111111111111111111000 6
b00000000000000000000000000000100 8
b00000000010100010010001000100011 ^
b00011111111111111111111111111000 _
b00000000000000000000000000000101 `
b00000000010100010010001000100011 k
b00101 n
#27
0[
#28
#29
b00000000000000000001000000100000 5
b00000000000000000001000000011100 :
1[
b00000000000000000001000000011100 ]
#30
b01000 $
b00001 &
b00000000000000000000000000001000 '
b11111111111111111111111111111100 1
b00000000000000000000000000000000 3
b00000000000000000001000000100100 5
b11111111111111111111111111111100 6
b00000000000000000000000000001000 8
b00000000000100010010010000100011 ^
b00011111111111111111111111111100 _
b00000000000000000000000000000000 `
b00000000000100010010010000100011 k
b00001 n
#31
0[
#32
#33
b00000000000000000001000000101000 5
b00000000000000000001000000100000 :
1[
b00000000000000000001000000100000 ]
#34
1#
b01010 $
b00101 %
b00101 &
b00000000000000000000000010100101 '
0)
0+
b001 -
b00011 .
b0110011 /
b00101 0
b00000000000000000000000010100000 1
b00000000000000000000000000000101 2
b00000000000000000000000000000101 3
b00000000000000000001000011000101 5
b00000000000000000000000010100000 6
b00000000000000000000000000000101 7
b00000000000000000000000000000101 8
b00001010010100101001010100110011 ^
b00000000000000000000000010100000 _
0a
0b
0c
0d
0e
b00001010010100101001010100110011 k
b0000101 m
b00101 n
#35
0[
#36
#37
b00000000000000000001000011001001 5
b00000000000000000001000000100100 :
b00000000000000000000000010100000 E
1[
b00000000000000000001000000100100 ]
#38
b01011 $
b00010 %
b00000 &
b00000000000000000000000000000000 '
1)
1*
b01 ,
b010 -
b00001 .
b0000011 /
b00010 0
b00000000000000000000000000000000 1
b11111111111111111111111111110100 2
b00000000000000000000000000000000 3
b00000000000000000001000000100100 5
b11111111111111111111111111110100 6
b11111111111111111111111111110100 7
b00000000000000000000000000000000 8
b00000000000000010010010110000011 ^
b00011111111111111111111111110100 _
b00000000000000010010010110000011 k
b0000000 m
b00000 n
#39
0[
#40
#41
b00000000000000000001000000101000 5
b00000000000000000001000000101000 :
1[
b00000000000000000001000000101000 ]
#42
b00101 $
b00000000000000000000000000000100 '
b00000000000000000001000000101100 5
b11111111111111111111111111111000 6
b00000000000000000000000000000100 8
b00000000010000010010001010000011 ^
b00011111111111111111111111111000 _
b00000000010000010010001010000011 k
b00100 n
#43
0[
#44
#45
b00000000000000000001000000110000 5
b00000000000000000001000000101100 :
b00000000000000000000000000000000 @
1[
b00000000000000000001000000101100 ]
#46
b00001 $
b00000000000000000000000000001000 '
b00000000000000000001000000110100 5
b11111111111111111111111111111100 6
b00000000000000000000000000001000 8
b00000000100000010010000010000011 ^
b00011111111111111111111111111100 _
b00000000100000010010000010000011 k
b01000 n
#47
0[
#48
#49
b00000000000000000001000000111000 5
b00000000000000000001000000110000 :
1[
b00000000000000000001000000110000 ]
#50
b00010 $
b00000000000000000000000000001100 '
0*
b00 ,
b000 -
b0010011 /
b00000000000000000001000000111100 5
b00000000000000000000000000000000 6
b00000000000000000000000000001100 8
b00000000110000010000000100010011 ^
b00000000000000000000000000000000 _
b00000000110000010000000100010011 k
b01100 n
#51
0[
#52
#53
b00000000000000000000000000001100 1
b00000000000000000000000000000000 2
b00000000000000000001000001000000 5
b00000000000000000000000000001100 6
b00000000000000000000000000000000 7
b00000000000000000001000000110100 :
b00000000000000000000000000000000 =
1[
b00000000000000000001000000110100 ]
b00000000000000000000000000001100 _
#54
b01011 $
b01011 %
b01010 &
b00000000000000000000000000001010 '
0)
b0110011 /
b01011 0
b00000000000000000000000010100000 1
b00000000000000000000000010100000 3
b00000000000000000001000000111110 5
b00000000000000000000000010100000 6
b00000000000000000000000010100000 8
b00000000101001011000010110110011 ^
b00000000000000000000000010100000 _
b00000000101001011000010110110011 k
b01010 n
#55
0[
#56
#57
b00000000000000000000000101000000 1
b00000000000000000000000010100000 2
b00000000000000000001000001000010 5
b00000000000000000000000101000000 6
b00000000000000000000000010100000 7
b00000000000000000001000000111000 :
b00000000000000000000000010100000 F
1[
b00000000000000000001000000111000 ]
b00000000000000000000000101000000 _
#58
b01010 $
b00101 %
b00000 &
b11111111111111111111111111111111 '
1)
b0010011 /
b00101 0
b11111111111111111111111111111111 1
b00000000000000000000000000000000 2
b00000000000000000000000000000000 3
b00000000000000000001000000110111 5
b11111111111111111111111111111111 6
b00000000000000000000000000000000 7
b11111111111111111111111111111111 8
b11 9
b11111111111100101000010100010011 ^
b00011111111111111111111111111111 _
b11111111111100101000010100010011 k
b1111111 m
b11111 n
#59
0[
#60
#61
b00000000000000000001000000111011 5
b00000000000000000001000000111100 :
b11111111111111111111111111111111 E
1[
b00000000000000000001000000111100 ]
#62
b00010 $
b00010 %
b11111111111111111111111111111100 '
b00010 0
b11111111111111111111111111111100 1
b00000000000000000001000000111000 5
b11111111111111111111111111111100 6
b11111111111111111111111111111100 8
b00 9
b11111111110000010000000100010011 ^
b00011111111111111111111111111100 _
b11111111110000010000000100010011 k
b11100 n
#63
0[
#64
#65
b11111111111111111111111111111000 1
b11111111111111111111111111111100 2
b00000000000000000001000000111100 5
b11111111111111111111111111111000 6
b11111111111111111111111111111100 7
b00000000000000000001000001000000 :
b11111111111111111111111111111100 =
1[
b00000000000000000001000001000000 ]
b00011111111111111111111111111000 _
#66
0#
b00000 $
b00001 &
b00000000000000000000000000000000 '
1+
b010 -
b0100011 /
b11111111111111111111111111111100 1
b00000000000000000001000001000000 5
b11111111111111111111111111111100 6
b00000000000000000000000000000000 8
b00000000000100010010000000100011 ^
b00011111111111111111111111111100 _
1a
1b
1c
1d
1e
b00000000000100010010000000100011 k
b0000000 m
b00001 n
#67
0[
#68
#69
b00000000000000000001000001000100 5
b00000000000000000001000001000100 :
1[
b00000000000000000001000001000100 ]
#70
1#
b00001 $
b00000 %
b00000 &
b11111111111111111111111110111100 '
1(
0+
b11 ,
b111 -
b1101111 /
b11111 0
b00000000000000000001000001001000 1
b00000000000000000000000000000000 2
14
b00000000000000000001000000000000 5
b00000000000000000001000000000000 6
b00000000000000000001000001000100 7
b11111111111111111111111110111100 8
b11111011110111111111000011101111 ^
b00000000000000000001000000000000 _
0a
0b
0c
0d
0e
b11111011110111111111000011101111 k
b1111101 m
b11101 n
#71
0[
b00000000010100000000010100010011 f
#72
#73
b00000000000000000001000000000100 1
b00000000000000000000111110111100 5
b00000000000000000000111110111100 6
b00000000000000000001000000000000 7
b00000000000000000001000000000000 :
b00000000000000000001000001001000 <
1[
b00000000000000000001000000000000 ]
b00000000000000000000111110111100 _
#74
b01010 $
b00000000000000000000000000000101 '
0(
b00 ,
b000 -
b0010011 /
b00000 0
b00000000000000000000000000000101 1
04
b00000000000000000001000000000101 5
b00000000000000000000000000000101 6
b00000000000000000000000000000000 7
b00000000000000000000000000000101 8
b01 9
b00000000010100000000010100010011 ^
b00000000000000000000000000000101 _
b00000000000000000000000000000000 f
b00000000010100000000010100010011 k
b0000000 m
b00101 n
#75
0[
#76
#77
b00000000000000000001000000001001 5
b00000000000000000001000000000100 :
b00000000000000000000000000000101 E
1[
b00000000000000000001000000000100 ]
#78
b01011 $
b00000000000000000000000000000000 '
b00000000000000000000000000000000 1
b00000000000000000001000000000100 5
b00000000000000000000000000000000 6
b00000000000000000000000000000000 8
b00 9
b00000000000000000000010110010011 ^
b00000000000000000000000000000000 _
b00000000000000000000010110010011 k
b00000 n
#79
0[
#80
#81
b00000000000000000001000000001000 5
b00000000000000000001000000001000 :
b00000000000000000000000000000000 F
1[
b00000000000000000001000000001000 ]
#82
0#
b01100 $
b01010 &
b00000000000000000000000001001100 '
1(
b101 -
b1100011 /
b00000000000000000001000001010100 1
b00000000000000000000000000000101 3
b00000000000000000001000001010100 5
b00000000000000000001000001010100 6
b00000000000000000001000000001000 7
b00000000000000000000000001001100 8
b00000100101000000101011001100011 ^
b00000000000000000001000001010100 _
b00000100101000000101011001100011 k
b0000010 m
b01010 n
#83
0[
b00000000000001011000010100110011 f
#84
#85
b00000000000000000001000001011000 1
b00000000000000000001000001011000 5
b00000000000000000001000001011000 6
b00000000000000000001000000001100 7
b00000000000000000001000000001100 :
1[
b00000000000000000001000000001100 ]
b00000000000000000001000001011000 _
#86
1#
b00101 $
b01010 %
b00000 &
b00000000000000000000000000000000 '
0(
0)
b000 -
b0110011 /
b01010 0
b00000000000000000000000000000101 1
b00000000000000000000000000000101 2
b00000000000000000000000000000000 3
b00000000000000000001000000001100 5
b00000000000000000000000000000101 6
b00000000000000000000000000000101 7
b00000000000000000000000000000000 8
b01 9
b00000000000001010000001010110011 ^
b00000000000000000000000000000101 _
b00000000000000001000000001100111 f
b00000000000001010000001010110011 k
b0000000 m
b00000 n
#87
0[
b00000000000000000000000000000000 f
#88
#89
b00000000000000000001000000010000 5
b00000000000000000001000000010000 :
b00000000000000000000000000000101 @
1[
b00000000000000000001000000010000 ]
#90
b00010 $
b00010 %
b11111111111111111111111111110100 '
1)
b0010011 /
b00010 0
b11111111111111111111111111110000 1
b11111111111111111111111111111100 2
b00000000000000000001000000000100 5
b11111111111111111111111111110000 6
b11111111111111111111111111111100 7
b11111111111111111111111111110100 8
b00 9
b11111111010000010000000100010011 ^
b00011111111111111111111111110000 _
b11111111010000010000000100010011 k
b1111111 m
b10100 n
#91
0[
#92
#93
b11111111111111111111111111100100 1
b11111111111111111111111111110000 2
b00000000000000000001000000001000 5
b11111111111111111111111111100100 6
b11111111111111111111111111110000 7
b00000000000000000001000000010100 :
b11111111111111111111111111110000 =
1[
b00000000000000000001000000010100 ]
b00011111111111111111111111100100 _
#94
0#
b00000 $
b01011 &
b00000000000000000000000000000000 '
1+
b010 -
b0100011 /
b11111111111111111111111111110000 1
b00000000000000000001000000010100 5
b11111111111111111111111111110000 6
b00000000000000000000000000000000 8
b00000000101100010010000000100011 ^
b00011111111111111111111111110000 _
1a
1b
1c
1d
1e
b00000000101100010010000000100011 k
b0000000 m
b01011 n
#95
0[
#96
#97
b00000000000000000001000000011000 5
b00000000000000000001000000011000 :
1[
b00000000000000000001000000011000 ]
#98
b00100 $
b00101 &
b00000000000000000000000000000100 '
b11111111111111111111111111110100 1
b00000000000000000000000000000101 3
b00000000000000000001000000011100 5
b11111111111111111111111111110100 6
b00000000000000000000000000000100 8
b00000000010100010010001000100011 ^
b00011111111111111111111111110100 _
b00000000000000000000000000000101 `
b00000000010100010010001000100011 k
b00101 n
#99
0[
#100
#101
b00000000000000000001000000100000 5
b00000000000000000001000000011100 :
1[
b00000000000000000001000000011100 ]
#102
b01000 $
b00001 &
b00000000000000000000000000001000 '
b11111111111111111111111111111000 1
b00000000000000000001000001001000 3
b00000000000000000001000000100100 5
b11111111111111111111111111111000 6
b00000000000000000000000000001000 8
b00000000000100010010010000100011 ^
b00011111111111111111111111111000 _
b00000000000000000001000001001000 `
b00000000000100010010010000100011 k
b00001 n
#103
0[
#104
#105
b00000000000000000001000000101000 5
b00000000000000000001000000100000 :
1[
b00000000000000000001000000100000 ]
#106
1#
b01010 $
b00101 %
b00101 &
b00000000000000000000000010100101 '
0)
0+
b001 -
b00011 .
b0110011 /
b00101 0
b00000000000000000000000010100000 1
b00000000000000000000000000000101 2
b00000000000000000000000000000101 3
b00000000000000000001000011000101 5
b00000000000000000000000010100000 6
b00000000000000000000000000000101 7
b00000000000000000000000000000101 8
b00001010010100101001010100110011 ^
b00000000000000000000000010100000 _
b00000000000000000000000000000000 `
0a
0b
0c
0d
0e
b00001010010100101001010100110011 k
b0000101 m
b00101 n
#107
0[
#108
#109
b00000000000000000001000011001001 5
b00000000000000000001000000100100 :
b00000000000000000000000010100000 E
1[
b00000000000000000001000000100100 ]
#110
b01011 $
b00010 %
b00000 &
b00000000000000000000000000000000 '
1)
1*
b01 ,
b010 -
b00001 .
b0000011 /
b00010 0
b00000000000000000000000000000000 1
b11111111111111111111111111110000 2
b00000000000000000000000000000000 3
b00000000000000000001000000100100 5
b11111111111111111111111111110000 6
b11111111111111111111111111110000 7
b00000000000000000000000000000000 8
b00000000000000010010010110000011 ^
b00011111111111111111111111110000 _
b00000000000000010010010110000011 k
b0000000 m
b00000 n
#111
0[
#112
