Q4_H_1.vcd
$version Generated by VerilatedVcd $end
$timescale 1ps $end
 $scope module TOP $end
  $var wire 1 [ clock $end
  $var wire 1 \ reset $end
  $var wire 32 ] io_instruction_address [31:0] $end
  $var wire 32 ^ io_instruction [31:0] $end
  $var wire 32 _ io_memory_bundle_address [31:0] $end
  $var wire 32 ` io_memory_bundle_write_data [31:0] $end
  $var wire 1 a io_memory_bundle_write_enable $end
  $var wire 1 b io_memory_bundle_write_strobe_0 $end
  $var wire 1 c io_memory_bundle_write_strobe_1 $end
  $var wire 1 d io_memory_bundle_write_strobe_2 $end
  $var wire 1 e io_memory_bundle_write_strobe_3 $end
  $var wire 32 f io_memory_bundle_read_data [31:0] $end
  $var wire 1 g io_instruction_valid $end
  $var wire 3 h io_deviceSelect [2:0] $end
  $var wire 5 i io_debug_read_address [4:0] $end
  $var wire 32 j io_debug_read_data [31:0] $end
  $scope module Top $end
   $var wire 1 [ clock $end
   $var wire 1 \ reset $end
   $var wire 32 ] io_instruction_address [31:0] $end
   $var wire 32 ^ io_instruction [31:0] $end
   $var wire 32 _ io_memory_bundle_address [31:0] $end
   $var wire 32 ` io_memory_bundle_write_data [31:0] $end
   $var wire 1 a io_memory_bundle_write_enable $end
   $var wire 1 b io_memory_bundle_write_strobe_0 $end
   $var wire 1 c io_memory_bundle_write_strobe_1 $end
   $var wire 1 d io_memory_bundle_write_strobe_2 $end
   $var wire 1 e io_memory_bundle_write_strobe_3 $end
   $var wire 32 f io_memory_bundle_read_data [31:0] $end
   $var wire 1 g io_instruction_valid $end
   $var wire 3 h io_deviceSelect [2:0] $end
   $var wire 5 i io_debug_read_address [4:0] $end
   $var wire 32 j io_debug_read_data [31:0] $end
   $var wire 1 [ cpu_clock $end
   $var wire 1 \ cpu_reset $end
   $var wire 32 ] cpu_io_instruction_address [31:0] $end
   $var wire 32 ^ cpu_io_instruction [31:0] $end
   $var wire 32 _ cpu_io_memory_bundle_address [31:0] $end
   $var wire 32 ` cpu_io_memory_bundle_write_data [31:0] $end
   $var wire 1 a cpu_io_memory_bundle_write_enable $end
   $var wire 1 b cpu_io_memory_bundle_write_strobe_0 $end
   $var wire 1 c cpu_io_memory_bundle_write_strobe_1 $end
   $var wire 1 d cpu_io_memory_bundle_write_strobe_2 $end
   $var wire 1 e cpu_io_memory_bundle_write_strobe_3 $end
   $var wire 32 f cpu_io_memory_bundle_read_data [31:0] $end
   $var wire 1 g cpu_io_instruction_valid $end
   $var wire 5 i cpu_io_debug_read_address [4:0] $end
   $var wire 32 j cpu_io_debug_read_data [31:0] $end
   $scope module cpu $end
    $var wire 1 [ clock $end
    $var wire 1 \ reset $end
    $var wire 32 ] io_instruction_address [31:0] $end
    $var wire 32 ^ io_instruction [31:0] $end
    $var wire 32 _ io_memory_bundle_address [31:0] $end
    $var wire 32 ` io_memory_bundle_write_data [31:0] $end
    $var wire 1 a io_memory_bundle_write_enable $end
    $var wire 1 b io_memory_bundle_write_strobe_0 $end
    $var wire 1 c io_memory_bundle_write_strobe_1 $end
    $var wire 1 d io_memory_bundle_write_strobe_2 $end
    $var wire 1 e io_memory_bundle_write_strobe_3 $end
    $var wire 32 f io_memory_bundle_read_data [31:0] $end
    $var wire 1 g io_instruction_valid $end
    $var wire 5 i io_debug_read_address [4:0] $end
    $var wire 32 j io_debug_read_data [31:0] $end
    $var wire 1 [ regs_clock $end
    $var wire 1 \ regs_reset $end
    $var wire 1 # regs_io_write_enable $end
    $var wire 5 $ regs_io_write_address [4:0] $end
    $var wire 32 1 regs_io_write_data [31:0] $end
    $var wire 5 % regs_io_read_address1 [4:0] $end
    $var wire 5 & regs_io_read_address2 [4:0] $end
    $var wire 32 2 regs_io_read_data1 [31:0] $end
    $var wire 32 3 regs_io_read_data2 [31:0] $end
    $var wire 5 i regs_io_debug_read_address [4:0] $end
    $var wire 32 j regs_io_debug_read_data [31:0] $end
    $var wire 1 [ inst_fetch_clock $end
    $var wire 1 \ inst_fetch_reset $end
    $var wire 1 4 inst_fetch_io_jump_flag_id $end
    $var wire 32 5 inst_fetch_io_jump_address_id [31:0] $end
    $var wire 32 ^ inst_fetch_io_instruction_read_data [31:0] $end
    $var wire 1 g inst_fetch_io_instruction_valid $end
    $var wire 32 ] inst_fetch_io_instruction_address [31:0] $end
    $var wire 32 k inst_fetch_io_instruction [31:0] $end
    $var wire 32 k id_io_instruction [31:0] $end
    $var wire 5 % id_io_regs_reg1_read_address [4:0] $end
    $var wire 5 & id_io_regs_reg2_read_address [4:0] $end
    $var wire 32 ' id_io_ex_immediate [31:0] $end
    $var wire 1 ( id_io_ex_aluop1_source $end
    $var wire 1 ) id_io_ex_aluop2_source $end
    $var wire 1 * id_io_memory_read_enable $end
    $var wire 1 + id_io_memory_write_enable $end
    $var wire 2 , id_io_wb_reg_write_source [1:0] $end
    $var wire 1 # id_io_reg_write_enable $end
    $var wire 5 $ id_io_reg_write_address [4:0] $end
    $var wire 32 k ex_io_instruction [31:0] $end
    $var wire 32 ] ex_io_instruction_address [31:0] $end
    $var wire 32 2 ex_io_reg1_data [31:0] $end
    $var wire 32 3 ex_io_reg2_data [31:0] $end
    $var wire 32 ' ex_io_immediate [31:0] $end
    $var wire 1 ( ex_io_aluop1_source $end
    $var wire 1 ) ex_io_aluop2_source $end
    $var wire 32 6 ex_io_mem_alu_result [31:0] $end
    $var wire 1 4 ex_io_if_jump_flag $end
    $var wire 32 5 ex_io_if_jump_address [31:0] $end
    $var wire 32 6 mem_io_alu_result [31:0] $end
    $var wire 32 3 mem_io_reg2_data [31:0] $end
    $var wire 1 * mem_io_memory_read_enable $end
    $var wire 1 + mem_io_memory_write_enable $end
    $var wire 3 - mem_io_funct3 [2:0] $end
    $var wire 32 l mem_io_wb_memory_read_data [31:0] $end
    $var wire 32 6 mem_io_memory_bundle_address [31:0] $end
    $var wire 32 ` mem_io_memory_bundle_write_data [31:0] $end
    $var wire 1 a mem_io_memory_bundle_write_enable $end
    $var wire 1 b mem_io_memory_bundle_write_strobe_0 $end
    $var wire 1 c mem_io_memory_bundle_write_strobe_1 $end
    $var wire 1 d mem_io_memory_bundle_write_strobe_2 $end
    $var wire 1 e mem_io_memory_bundle_write_strobe_3 $end
    $var wire 32 f mem_io_memory_bundle_read_data [31:0] $end
    $var wire 32 ] wb_io_instruction_address [31:0] $end
    $var wire 32 6 wb_io_alu_result [31:0] $end
    $var wire 32 l wb_io_memory_read_data [31:0] $end
    $var wire 2 , wb_io_regs_write_source [1:0] $end
    $var wire 32 1 wb_io_regs_write_data [31:0] $end
    $scope module ex $end
     $var wire 32 k io_instruction [31:0] $end
     $var wire 32 ] io_instruction_address [31:0] $end
     $var wire 32 2 io_reg1_data [31:0] $end
     $var wire 32 3 io_reg2_data [31:0] $end
     $var wire 32 ' io_immediate [31:0] $end
     $var wire 1 ( io_aluop1_source $end
     $var wire 1 ) io_aluop2_source $end
     $var wire 32 6 io_mem_alu_result [31:0] $end
     $var wire 1 4 io_if_jump_flag $end
     $var wire 32 5 io_if_jump_address [31:0] $end
     $var wire 5 . alu_io_func [4:0] $end
     $var wire 32 7 alu_io_op1 [31:0] $end
     $var wire 32 8 alu_io_op2 [31:0] $end
     $var wire 32 6 alu_io_result [31:0] $end
     $var wire 7 / alu_ctrl_io_opcode [6:0] $end
     $var wire 3 - alu_ctrl_io_funct3 [2:0] $end
     $var wire 7 m alu_ctrl_io_funct7 [6:0] $end
     $var wire 5 . alu_ctrl_io_alu_funct [4:0] $end
     $var wire 7 / opcode [6:0] $end
     $var wire 3 - funct3 [2:0] $end
     $scope module alu $end
      $var wire 5 . io_func [4:0] $end
      $var wire 32 7 io_op1 [31:0] $end
      $var wire 32 8 io_op2 [31:0] $end
      $var wire 32 6 io_result [31:0] $end
     $upscope $end
     $scope module alu_ctrl $end
      $var wire 7 / io_opcode [6:0] $end
      $var wire 3 - io_funct3 [2:0] $end
      $var wire 7 m io_funct7 [6:0] $end
      $var wire 5 . io_alu_funct [4:0] $end
     $upscope $end
    $upscope $end
    $scope module id $end
     $var wire 32 k io_instruction [31:0] $end
     $var wire 5 % io_regs_reg1_read_address [4:0] $end
     $var wire 5 & io_regs_reg2_read_address [4:0] $end
     $var wire 32 ' io_ex_immediate [31:0] $end
     $var wire 1 ( io_ex_aluop1_source $end
     $var wire 1 ) io_ex_aluop2_source $end
     $var wire 1 * io_memory_read_enable $end
     $var wire 1 + io_memory_write_enable $end
     $var wire 2 , io_wb_reg_write_source [1:0] $end
     $var wire 1 # io_reg_write_enable $end
     $var wire 5 $ io_reg_write_address [4:0] $end
     $var wire 7 / opcode [6:0] $end
     $var wire 5 $ rd [4:0] $end
     $var wire 5 0 rs1 [4:0] $end
     $var wire 5 n rs2 [4:0] $end
    $upscope $end
    $scope module inst_fetch $end
     $var wire 1 [ clock $end
     $var wire 1 \ reset $end
     $var wire 1 4 io_jump_flag_id $end
     $var wire 32 5 io_jump_address_id [31:0] $end
     $var wire 32 ^ io_instruction_read_data [31:0] $end
     $var wire 1 g io_instruction_valid $end
     $var wire 32 ] io_instruction_address [31:0] $end
     $var wire 32 k io_instruction [31:0] $end
     $var wire 32 : pc [31:0] $end
    $upscope $end
    $scope module mem $end
     $var wire 32 6 io_alu_result [31:0] $end
     $var wire 32 3 io_reg2_data [31:0] $end
     $var wire 1 * io_memory_read_enable $end
     $var wire 1 + io_memory_write_enable $end
     $var wire 3 - io_funct3 [2:0] $end
     $var wire 32 l io_wb_memory_read_data [31:0] $end
     $var wire 32 6 io_memory_bundle_address [31:0] $end
     $var wire 32 ` io_memory_bundle_write_data [31:0] $end
     $var wire 1 a io_memory_bundle_write_enable $end
     $var wire 1 b io_memory_bundle_write_strobe_0 $end
     $var wire 1 c io_memory_bundle_write_strobe_1 $end
     $var wire 1 d io_memory_bundle_write_strobe_2 $end
     $var wire 1 e io_memory_bundle_write_strobe_3 $end
     $var wire 32 f io_memory_bundle_read_data [31:0] $end
     $var wire 2 9 mem_address_index [1:0] $end
    $upscope $end
    $scope module regs $end
     $var wire 1 [ clock $end
     $var wire 1 \ reset $end
     $var wire 1 # io_write_enable $end
     $var wire 5 $ io_write_address [4:0] $end
     $var wire 32 1 io_write_data [31:0] $end
     $var wire 5 % io_read_address1 [4:0] $end
     $var wire 5 & io_read_address2 [4:0] $end
     $var wire 32 2 io_read_data1 [31:0] $end
     $var wire 32 3 io_read_data2 [31:0] $end
     $var wire 5 i io_debug_read_address [4:0] $end
     $var wire 32 j io_debug_read_data [31:0] $end
     $var wire 32 ; registers_0 [31:0] $end
     $var wire 32 < registers_1 [31:0] $end
     $var wire 32 = registers_2 [31:0] $end
     $var wire 32 > registers_3 [31:0] $end
     $var wire 32 ? registers_4 [31:0] $end
     $var wire 32 @ registers_5 [31:0] $end
     $var wire 32 A registers_6 [31:0] $end
     $var wire 32 B registers_7 [31:0] $end
     $var wire 32 C registers_8 [31:0] $end
     $var wire 32 D registers_9 [31:0] $end
     $var wire 32 E registers_10 [31:0] $end
     $var wire 32 F registers_11 [31:0] $end
     $var wire 32 G registers_12 [31:0] $end
     $var wire 32 H registers_13 [31:0] $end
     $var wire 32 I registers_14 [31:0] $end
     $var wire 32 J registers_15 [31:0] $end
     $var wire 32 K registers_16 [31:0] $end
     $var wire 32 L registers_17 [31:0] $end
     $var wire 32 M registers_18 [31:0] $end
     $var wire 32 N registers_19 [31:0] $end
     $var wire 32 O registers_20 [31:0] $end
     $var wire 32 P registers_21 [31:0] $end
     $var wire 32 Q registers_22 [31:0] $end
     $var wire 32 R registers_23 [31:0] $end
     $var wire 32 S registers_24 [31:0] $end
     $var wire 32 T registers_25 [31:0] $end
     $var wire 32 U registers_26 [31:0] $end
     $var wire 32 V registers_27 [31:0] $end
     $var wire 32 W registers_28 [31:0] $end
     $var wire 32 X registers_29 [31:0] $end
     $var wire 32 Y registers_30 [31:0] $end
     $var wire 32 Z registers_31 [31:0] $end
    $upscope $end
    $scope module wb $end
     $var wire 32 ] io_instruction_address [31:0] $end
     $var wire 32 6 io_alu_result [31:0] $end
     $var wire 32 l io_memory_read_data [31:0] $end
     $var wire 2 , io_regs_write_source [1:0] $end
     $var wire 32 1 io_regs_write_data [31:0] $end
    $upscope $end
   $upscope $end
  $upscope $end
 $upscope $end
$enddefinitions $end


#0
1#
b00000 $
b00000 %
b00000 &
b00000000000000000000000000000000 '
0(
1)
0*
0+
b00 ,
b000 -
b00001 .
b0010011 /
b00000 0
b00000000000000000000000000000000 1
b00000000000000000000000000000000 2
b00000000000000000000000000000000 3
04
b00000000000000000000000000000000 5
b00000000000000000000000000000000 6
b00000000000000000000000000000000 7
b00000000000000000000000000000000 8
b00 9
b00000000000000000000000000000000 :
b00000000000000000000000000000000 ;
b00000000000000000000000000000000 <
b00000000000000000000000000000000 =
b00000000000000000000000000000000 >
b00000000000000000000000000000000 ?
b00000000000000000000000000000000 @
b00000000000000000000000000000000 A
b00000000000000000000000000000000 B
b00000000000000000000000000000000 C
b00000000000000000000000000000000 D
b00000000000000000000000000000000 E
b00000000000000000000000000000000 F
b00000000000000000000000000000000 G
b00000000000000000000000000000000 H
b00000000000000000000000000000000 I
b00000000000000000000000000000000 J
b00000000000000000000000000000000 K
b00000000000000000000000000000000 L
b00000000000000000000000000000000 M
b00000000000000000000000000000000 N
b00000000000000000000000000000000 O
b00000000000000000000000000000000 P
b00000000000000000000000000000000 Q
b00000000000000000000000000000000 R
b00000000000000000000000000000000 S
b00000000000000000000000000000000 T
b00000000000000000000000000000000 U
b00000000000000000000000000000000 V
b00000000000000000000000000000000 W
b00000000000000000000000000000000 X
b00000000000000000000000000000000 Y
b00000000000000000000000000000000 Z
0[
1\
b00000000000000000000000000000000 ]
b00000000000000000000000000000000 ^
b00000000000000000000000000000000 _
b00000000000000000000000000000000 `
0a
0b
0c
0d
0e
b00000000000000000000000000000000 f
0g
b000 h
b00000 i
b00000000000000000000000000000000 j
b00000000000000000000000000010011 k
b00000000000000000000000000000000 l
b0000000 m
b00000 n
#1
0#
b00000 .
b0000000 /
b00000000000000000001000000000000 5
b00000000000000000001000000000000 :
1[
b00000000000000000001000000000000 ]
1g
b00000000000000000000000000000000 k
#2
1#
b01010 $
b00111111100000000000000000000000 '
b00001 .
b0110111 /
b00111111100000000000000000000000 1
b00111111100000000001000000000000 5
b00111111100000000000000000000000 6
b00111111100000000000000000000000 8
b00111111100000000000010100110111 ^
b00011111100000000000000000000000 _
b00111111100000000000010100110111 k
b0011111 m
b11000 n
#3
0[
0\
#4
#5
b00111111100000000001000000000100 5
b00000000000000000001000000000100 :
b00111111100000000000000000000000 E
1[
b00000000000000000001000000000100 ]
#6
b01011 $
b01000000000000000000000000000000 '
b01000000000000000000000000000000 1
b01000000000000000001000000000100 5
b01000000000000000000000000000000 6
b01000000000000000000000000000000 8
b01000000000000000000010110110111 ^
b00000000000000000000000000000000 _
b01000000000000000000010110110111 k
b0100000 m
b00000 n
#7
0[
#8
#9
b01000000000000000001000000001000 5
b00000000000000000001000000001000 :
b01000000000000000000000000000000 F
1[
b00000000000000000001000000001000 ]
#10
b01100 $
b01010 %
b00000000000000000000000000010111 '
b101 -
b01000 .
b0010011 /
b01010 0
b00000000000000000000000001111111 1
b00111111100000000000000000000000 2
b00000000000000000001000000011111 5
b00000000000000000000000001111111 6
b00111111100000000000000000000000 7
b00000000000000000000000000010111 8
b11 9
b00000001011101010101011000010011 ^
b00000000000000000000000001111111 _
b00000001011101010101011000010011 k
b0000000 m
b10111 n
#11
0[
#12
#13
b00000000000000000001000000100011 5
b00000000000000000001000000001100 :
b00000000000000000000000001111111 G
1[
b00000000000000000001000000001100 ]
#14
b01100 %
b00000000000000000000000011111111 '
b111 -
b00111 .
b01100 0
b00000000000000000000000001111111 2
b00000000000000000001000100001011 5
b00000000000000000000000001111111 7
b00000000000000000000000011111111 8
b00001111111101100111011000010011 ^
b00001111111101100111011000010011 k
b0000111 m
b11111 n
#15
0[
#16
#17
b00000000000000000001000100001111 5
b00000000000000000001000000010000 :
1[
b00000000000000000001000000010000 ]
#18
b01101 $
b01011 %
b00000000000000000000000000010111 '
b101 -
b01000 .
b01011 0
b00000000000000000000000010000000 1
b01000000000000000000000000000000 2
b00000000000000000001000000100111 5
b00000000000000000000000010000000 6
b01000000000000000000000000000000 7
b00000000000000000000000000010111 8
b00 9
b00000001011101011101011010010011 ^
b00000000000000000000000010000000 _
b00000001011101011101011010010011 k
b0000000 m
b10111 n
#19
0[
#20
#21
b00000000000000000001000000101011 5
b00000000000000000001000000010100 :
b00000000000000000000000010000000 H
1[
b00000000000000000001000000010100 ]
#22
b01101 %
b00000000000000000000000011111111 '
b111 -
b00111 .
b01101 0
b00000000000000000000000010000000 2
b00000000000000000001000100010011 5
b00000000000000000000000010000000 7
b00000000000000000000000011111111 8
b00001111111101101111011010010011 ^
b00001111111101101111011010010011 k
b0000111 m
b11111 n
#23
0[
#24
#25
b00000000000000000001000100010111 5
b00000000000000000001000000011000 :
1[
b00000000000000000001000000011000 ]
#26
0#
b00100 $
b01100 %
b00000000000000000000000100100100 '
1(
b000 -
b00001 .
b1100011 /
b01100 0
b00000000000000000001000100111100 1
b00000000000000000000000001111111 2
b00000000000000000001000100111100 5
b00000000000000000001000100111100 6
b00000000000000000001000000011000 7
b00000000000000000000000100100100 8
b00010010000001100000001001100011 ^
b00000000000000000001000100111100 _
b00010010000001100000001001100011 k
b0001001 m
b00000 n
#27
0[
b00000000000001011000010100110011 f
#28
#29
b00000000000000000001000101000000 1
b00000000000000000001000101000000 5
b00000000000000000001000101000000 6
b00000000000000000001000000011100 7
b00000000000000000001000000011100 :
1[
b00000000000000000001000000011100 ]
b00000000000000000001000101000000 _
#30
b01000 $
b01101 %
b00000000000000000000000100101000 '
b01101 0
b00000000000000000001000101000100 1
b00000000000000000000000010000000 2
b00000000000000000001000101000100 5
b00000000000000000001000101000100 6
b00000000000000000000000100101000 8
b00010010000001101000010001100011 ^
b00000000000000000001000101000100 _
b00000000000000001000000001100111 f
b00010010000001101000010001100011 k
#31
0[
#32
#33
b00000000000000000001000101001000 1
b00000000000000000001000101001000 5
b00000000000000000001000101001000 6
b00000000000000000001000000100000 7
b00000000000000000001000000100000 :
1[
b00000000000000000001000000100000 ]
b00000000000000000001000101001000 _
#34
1#
b01110 $
b01010 %
b00000000000000000000000000001001 '
0(
b001 -
b00011 .
b0010011 /
b01010 0
b00000000000000000000000000000000 1
b00111111100000000000000000000000 2
b00000000000000000001000000101001 5
b00000000000000000000000000000000 6
b00111111100000000000000000000000 7
b00000000000000000000000000001001 8
b00000000100101010001011100010011 ^
b00000000000000000000000000000000 _
b00000000000000000000010100110011 f
b00000000100101010001011100010011 k
b0000000 m
b01001 n
#35
0[
b00000000000000000000000000000000 f
#36
#37
b00000000000000000001000000101101 5
b00000000000000000001000000100100 :
1[
b00000000000000000001000000100100 ]
#38
b01111 $
b01011 %
b01011 0
b01000000000000000000000000000000 2
b01000000000000000000000000000000 7
b00000000100101011001011110010011 ^
b00000000100101011001011110010011 k
#39
0[
#40
#41
b00000000000000000001000000110001 5
b00000000000000000001000000101000 :
1[
b00000000000000000001000000101000 ]
#42
b00101 $
b01100 %
b01100 &
b00000000000000000000000010101100 '
0)
b0110011 /
b01100 0
b10000000000000000000000000000000 1
b00000000000000000000000001111111 2
b00000000000000000000000001111111 3
b00000000000000000001000011010100 5
b10000000000000000000000000000000 6
b00000000000000000000000001111111 7
b00000000000000000000000001111111 8
b00001010110001100001001010110011 ^
b00001010110001100001001010110011 k
b0000101 m
b01100 n
#43
0[
#44
#45
b00000000000000000001000011011000 5
b00000000000000000001000000101100 :
b10000000000000000000000000000000 @
1[
b00000000000000000001000000101100 ]
#46
b00110 $
b00000 %
b00000 &
b00000000000000000000000011111111 '
1)
b000 -
b00001 .
b0010011 /
b00000 0
b00000000000000000000000011111111 1
b00000000000000000000000000000000 2
b00000000000000000000000000000000 3
b00000000000000000001000100101011 5
b00000000000000000000000011111111 6
b00000000000000000000000000000000 7
b00000000000000000000000011111111 8
b11 9
b00001111111100000000001100010011 ^
b00000000000000000000000011111111 _
b00001111111100000000001100010011 k
b0000111 m
b11111 n
#47
0[
#48
#49
b00000000000000000001000100101111 5
b00000000000000000001000000110000 :
b00000000000000000000000011111111 A
1[
b00000000000000000001000000110000 ]
#50
0#
b11100 $
b01100 %
b00110 &
b00000000000000000000000011111100 '
1(
b1100011 /
b01100 0
b00000000000000000001000100101100 1
b00000000000000000000000001111111 2
b00000000000000000000000011111111 3
b00000000000000000001000100101100 5
b00000000000000000001000100101100 6
b00000000000000000001000000110000 7
b00000000000000000000000011111100 8
b00 9
b00001110011001100000111001100011 ^
b00000000000000000001000100101100 _
b00001110011001100000111001100011 k
b00110 n
#51
0[
b00000000000001010000010100110011 f
#52
#53
b00000000000000000001000100110000 1
b00000000000000000001000100110000 5
b00000000000000000001000100110000 6
b00000000000000000001000000110100 7
b00000000000000000001000000110100 :
1[
b00000000000000000001000000110100 ]
b00000000000000000001000100110000 _
#54
b00000 $
b01101 %
b00000000000000000000000100000000 '
b01101 0
b00000000000000000001000100110100 1
b00000000000000000000000010000000 2
b00000000000000000001000100110100 5
b00000000000000000001000100110100 6
b00000000000000000000000100000000 8
b00010000011001101000000001100011 ^
b00000000000000000001000100110100 _
b00000000000000001000000001100111 f
b00010000011001101000000001100011 k
b0001000 m
#55
0[
b00000000000001011000010100110011 f
#56
#57
b00000000000000000001000100111000 1
b00000000000000000001000100111000 5
b00000000000000000001000100111000 6
b00000000000000000001000000111000 7
b00000000000000000001000000111000 :
1[
b00000000000000000001000000111000 ]
b00000000000000000001000100111000 _
#58
1#
b01110 $
b01110 %
b00000 &
b00000000000000000000000000000110 '
0(
b101 -
b01000 .
b0010011 /
b01110 0
b00000000000000000000000000000000 1
b00000000000000000000000000000000 2
b00000000000000000000000000000000 3
b00000000000000000001000000111110 5
b00000000000000000000000000000000 6
b00000000000000000000000000000000 7
b00000000000000000000000000000110 8
b00000000011001110101011100010011 ^
b00000000000000000000000000000000 _
b00000000000000001000000001100111 f
b00000000011001110101011100010011 k
b0000000 m
#59
0[
b00000000000000000000000000000000 f
#60
#61
b00000000000000000001000001000010 5
b00000000000000000001000000111100 :
1[
b00000000000000000001000000111100 ]
#62
b01111 $
b01111 %
b01111 0
b00000000011001111101011110010011 ^
b00000000011001111101011110010011 k
#63
0[
#64
#65
b00000000000000000001000001000110 5
b00000000000000000001000001000000 :
1[
b00000000000000000001000001000000 ]
#66
b00110 $
b00000 %
b00000100000000000000000000000000 '
b000 -
b00001 .
b0110111 /
b00000 0
b00000100000000000000000000000000 1
b00000100000000000001000001000000 5
b00000100000000000000000000000000 6
b00000100000000000000000000000000 8
b00000100000000000000001100110111 ^
b00000100000000000000000000000000 _
b00000100000000000000001100110111 k
b0000010 m
b00000 n
#67
0[
#68
#69
b00000100000000000001000001000100 5
b00000000000000000001000001000100 :
b00000100000000000000000000000000 A
1[
b00000000000000000001000001000100 ]
#70
b01110 $
b01110 %
b00110 &
b00000000000000000000000000000110 '
0)
b110 -
b00110 .
b0110011 /
b01110 0
b00000100000000000000000000000000 3
b00000000000000000001000001001010 5
b00000000011001110110011100110011 ^
b00000000011001110110011100110011 k
b0000000 m
b00110 n
#71
0[
#72
#73
b00000100000000000000000000000000 2
b00000000000000000001000001001110 5
b00000100000000000000000000000000 7
b00000000000000000001000001001000 :
b00000100000000000000000000000000 I
1[
b00000000000000000001000001001000 ]
#74
b01111 $
b01111 %
b01111 0
b00000000000000000000000000000000 2
b00000000000000000000000000000000 7
b00000000011001111110011110110011 ^
b00000000011001111110011110110011 k
#75
0[
#76
#77
b00000100000000000000000000000000 2
b00000000000000000001000001010010 5
b00000100000000000000000000000000 7
b00000000000000000001000001001100 :
b00000100000000000000000000000000 J
1[
b00000000000000000001000001001100 ]
#78
b00111 $
b01010 %
b00000 &
b00000000000000000000000000011111 '
1)
b101 -
b01000 .
b0010011 /
b01010 0
b00000000000000000000000000000000 1
b00111111100000000000000000000000 2
b00000000000000000000000000000000 3
b00000000000000000001000001101011 5
b00000000000000000000000000000000 6
b00111111100000000000000000000000 7
b00000000000000000000000000011111 8
b00000001111101010101001110010011 ^
b00000000000000000000000000000000 _
b00000001111101010101001110010011 k
b11111 n
#79
0[
#80
#81
b00000000000000000001000001101111 5
b00000000000000000001000001010000 :
1[
b00000000000000000001000001010000 ]
#82
b00111 %
b00000000000000000000000000000001 '
b111 -
b00111 .
b00111 0
b00000000000000000000000000000000 2
b00000000000000000001000001010001 5
b00000000000000000000000000000000 7
b00000000000000000000000000000001 8
b00000000000100111111001110010011 ^
b00000000000100111111001110010011 k
b00001 n
#83
0[
#84
#85
b00000000000000000001000001010101 5
b00000000000000000001000001010100 :
1[
b00000000000000000001000001010100 ]
#86
0#
b01000 $
b00000000000000000000000000001000 '
1(
b000 -
b00001 .
b1100011 /
b00000000000000000001000001011100 1
14
b00000000000000000001000001011100 5
b00000000000000000001000001011100 6
b00000000000000000001000001010100 7
b00000000000000000000000000001000 8
b00000000000000111000010001100011 ^
b00000000000000000001000001011100 _
b00000000000000111000010001100011 k
b00000 n
#87
0[
b00000001100100000000001100010011 f
#88
#89
b00000000000000000001000001100100 1
b00000000000000000001000001100100 5
b00000000000000000001000001100100 6
b00000000000000000001000001011100 7
b00000000000000000001000001011100 :
1[
b00000000000000000001000001011100 ]
b00000000000000000001000001100100 _
#90
1#
b00110 $
b00000 %
b00000000000000000000000000011001 '
0(
b0010011 /
b00000 0
b00000000000000000000000000011001 1
04
b00000000000000000001000001110101 5
b00000000000000000000000000011001 6
b00000000000000000000000000000000 7
b00000000000000000000000000011001 8
b01 9
b00000001100100000000001100010011 ^
b00000000000000000000000000011001 _
b00000000000100111111001110010011 f
b00000001100100000000001100010011 k
b11001 n
#91
0[
b00000000000000000000000000000000 f
#92
#93
b00000000000000000001000001111001 5
b00000000000000000001000001100000 :
b00000000000000000000000000011001 A
1[
b00000000000000000001000001100000 ]
#94
b00111 $
b01011 %
b00000000000000000000000000011111 '
b101 -
b01000 .
b01011 0
b00000000000000000000000000000000 1
b01000000000000000000000000000000 2
b00000000000000000001000001111111 5
b00000000000000000000000000000000 6
b01000000000000000000000000000000 7
b00000000000000000000000000011111 8
b00 9
b00000001111101011101001110010011 ^
b00000000000000000000000000000000 _
b00000001111101011101001110010011 k
b11111 n
#95
0[
#96
#97
b00000000000000000001000010000011 5
b00000000000000000001000001100100 :
1[
b00000000000000000001000001100100 ]
#98
b00111 %
b00000000000000000000000000000001 '
b111 -
b00111 .
b00111 0
b00000000000000000000000000000000 2
b00000000000000000001000001100101 5
b00000000000000000000000000000000 7
b00000000000000000000000000000001 8
b00000000000100111111001110010011 ^
b00000000000100111111001110010011 k
b00001 n
#99
0[
#100
#101
b00000000000000000001000001101001 5
b00000000000000000001000001101000 :
1[
b00000000000000000001000001101000 ]
#102
0#
b01000 $
b00000000000000000000000000001000 '
1(
b000 -
b00001 .
b1100011 /
b00000000000000000001000001110000 1
14
b00000000000000000001000001110000 5
b00000000000000000001000001110000 6
b00000000000000000001000001101000 7
b00000000000000000000000000001000 8
b00000000000000111000010001100011 ^
b00000000000000000001000001110000 _
b00000000000000111000010001100011 k
b00000 n
#103
0[
b00001000110101100110101001100011 f
#104
#105
b00000000000000000001000001111000 1
b00000000000000000001000001111000 5
b00000000000000000001000001111000 6
b00000000000000000001000001110000 7
b00000000000000000001000001110000 :
1[
b00000000000000000001000001110000 ]
b00000000000000000001000001111000 _
#106
b10100 $
b01100 %
b01101 &
b00000000000000000000000010010100 '
b110 -
b01100 0
b00000000000000000001000100000100 1
b00000000000000000000000001111111 2
b00000000000000000000000010000000 3
b00000000000000000001000100000100 5
b00000000000000000001000100000100 6
b00000000000000000000000010010100 8
b00001000110101100110101001100011 ^
b00000000000000000001000100000100 _
b00001100011011100111011001100011 f
b00001000110101100110101001100011 k
b0000100 m
b01101 n
#107
0[
b00000000000001010000111110010011 f
#108
#109
b00000000000000000001000110011000 1
b00000000000000000001000110011000 5
b00000000000000000001000110011000 6
b00000000000000000001000100000100 7
b00000000000000000001000100000100 :
1[
b00000000000000000001000100000100 ]
b00000000000000000001000110011000 _
#110
1#
b11111 $
b01010 %
b00000 &
b00000000000000000000000000000000 '
0(
b000 -
b0010011 /
b01010 0
b00111111100000000000000000000000 1
b00111111100000000000000000000000 2
b00000000000000000000000000000000 3
04
b00000000000000000001000100000100 5
b00111111100000000000000000000000 6
b00111111100000000000000000000000 7
b00000000000000000000000000000000 8
b00000000000001010000111110010011 ^
b00011111100000000000000000000000 _
b00000000000000000000000000000000 f
b00000000000001010000111110010011 k
b0000000 m
b00000 n
#111
0[
#112
#113
b00000000000000000001000100001000 5
b00000000000000000001000100001000 :
b00111111100000000000000000000000 Z
1[
b00000000000000000001000100001000 ]
#114
b01010 $
b01011 %
b01011 0
b01000000000000000000000000000000 1
b01000000000000000000000000000000 2
b01000000000000000000000000000000 6
b01000000000000000000000000000000 7
b00000000000001011000010100010011 ^
b00000000000000000000000000000000 _
b00000000000001011000010100010011 k
#115
0[
#116
#117
b00000000000000000001000100001100 5
b00000000000000000001000100001100 :
b01000000000000000000000000000000 E
1[
b00000000000000000001000100001100 ]
#118
b01011 $
b11111 %
b11111 0
b00111111100000000000000000000000 1
b00111111100000000000000000000000 2
b00111111100000000000000000000000 6
b00111111100000000000000000000000 7
b00000000000011111000010110010011 ^
b00011111100000000000000000000000 _
b00000000000011111000010110010011 k
#119
0[
#120
#121
b00000000000000000001000100010000 5
b00000000000000000001000100010000 :
b00111111100000000000000000000000 F
1[
b00000000000000000001000100010000 ]
