Q4_H_2.vcd
$version Generated by VerilatedVcd $end
$timescale 1ps $end
 $scope module TOP $end
  $var wire 1 [ clock $end
  $var wire 1 \ reset $end
  $var wire 32 ] io_instruction_address [31:0] $end
  $var wire 32 ^ io_instruction [31:0] $end
  $var wire 32 _ io_memory_bundle_address [31:0] $end
  $var wire 32 ` io_memory_bundle_write_data [31:0] $end
  $var wire 1 a io_memory_bundle_write_enable $end
  $var wire 1 b io_memory_bundle_write_strobe_0 $end
  $var wire 1 c io_memory_bundle_write_strobe_1 $end
  $var wire 1 d io_memory_bundle_write_strobe_2 $end
  $var wire 1 e io_memory_bundle_write_strobe_3 $end
  $var wire 32 f io_memory_bundle_read_data [31:0] $end
  $var wire 1 g io_instruction_valid $end
  $var wire 3 h io_deviceSelect [2:0] $end
  $var wire 5 i io_debug_read_address [4:0] $end
  $var wire 32 j io_debug_read_data [31:0] $end
  $scope module Top $end
   $var wire 1 [ clock $end
   $var wire 1 \ reset $end
   $var wire 32 ] io_instruction_address [31:0] $end
   $var wire 32 ^ io_instruction [31:0] $end
   $var wire 32 _ io_memory_bundle_address [31:0] $end
   $var wire 32 ` io_memory_bundle_write_data [31:0] $end
   $var wire 1 a io_memory_bundle_write_enable $end
   $var wire 1 b io_memory_bundle_write_strobe_0 $end
   $var wire 1 c io_memory_bundle_write_strobe_1 $end
   $var wire 1 d io_memory_bundle_write_strobe_2 $end
   $var wire 1 e io_memory_bundle_write_strobe_3 $end
   $var wire 32 f io_memory_bundle_read_data [31:0] $end
   $var wire 1 g io_instruction_valid $end
   $var wire 3 h io_deviceSelect [2:0] $end
   $var wire 5 i io_debug_read_address [4:0] $end
   $var wire 32 j io_debug_read_data [31:0] $end
   $var wire 1 [ cpu_clock $end
   $var wire 1 \ cpu_reset $end
   $var wire 32 ] cpu_io_instruction_address [31:0] $end
   $var wire 32 ^ cpu_io_instruction [31:0] $end
   $var wire 32 _ cpu_io_memory_bundle_address [31:0] $end
   $var wire 32 ` cpu_io_memory_bundle_write_data [31:0] $end
   $var wire 1 a cpu_io_memory_bundle_write_enable $end
   $var wire 1 b cpu_io_memory_bundle_write_strobe_0 $end
   $var wire 1 c cpu_io_memory_bundle_write_strobe_1 $end
   $var wire 1 d cpu_io_memory_bundle_write_strobe_2 $end
   $var wire 1 e cpu_io_memory_bundle_write_strobe_3 $end
   $var wire 32 f cpu_io_memory_bundle_read_data [31:0] $end
   $var wire 1 g cpu_io_instruction_valid $end
   $var wire 5 i cpu_io_debug_read_address [4:0] $end
   $var wire 32 j cpu_io_debug_read_data [31:0] $end
   $scope module cpu $end
    $var wire 1 [ clock $end
    $var wire 1 \ reset $end
    $var wire 32 ] io_instruction_address [31:0] $end
    $var wire 32 ^ io_instruction [31:0] $end
    $var wire 32 _ io_memory_bundle_address [31:0] $end
    $var wire 32 ` io_memory_bundle_write_data [31:0] $end
    $var wire 1 a io_memory_bundle_write_enable $end
    $var wire 1 b io_memory_bundle_write_strobe_0 $end
    $var wire 1 c io_memory_bundle_write_strobe_1 $end
    $var wire 1 d io_memory_bundle_write_strobe_2 $end
    $var wire 1 e io_memory_bundle_write_strobe_3 $end
    $var wire 32 f io_memory_bundle_read_data [31:0] $end
    $var wire 1 g io_instruction_valid $end
    $var wire 5 i io_debug_read_address [4:0] $end
    $var wire 32 j io_debug_read_data [31:0] $end
    $var wire 1 [ regs_clock $end
    $var wire 1 \ regs_reset $end
    $var wire 1 # regs_io_write_enable $end
    $var wire 5 $ regs_io_write_address [4:0] $end
    $var wire 32 1 regs_io_write_data [31:0] $end
    $var wire 5 % regs_io_read_address1 [4:0] $end
    $var wire 5 & regs_io_read_address2 [4:0] $end
    $var wire 32 2 regs_io_read_data1 [31:0] $end
    $var wire 32 3 regs_io_read_data2 [31:0] $end
    $var wire 5 i regs_io_debug_read_address [4:0] $end
    $var wire 32 j regs_io_debug_read_data [31:0] $end
    $var wire 1 [ inst_fetch_clock $end
    $var wire 1 \ inst_fetch_reset $end
    $var wire 1 4 inst_fetch_io_jump_flag_id $end
    $var wire 32 5 inst_fetch_io_jump_address_id [31:0] $end
    $var wire 32 ^ inst_fetch_io_instruction_read_data [31:0] $end
    $var wire 1 g inst_fetch_io_instruction_valid $end
    $var wire 32 ] inst_fetch_io_instruction_address [31:0] $end
    $var wire 32 k inst_fetch_io_instruction [31:0] $end
    $var wire 32 k id_io_instruction [31:0] $end
    $var wire 5 % id_io_regs_reg1_read_address [4:0] $end
    $var wire 5 & id_io_regs_reg2_read_address [4:0] $end
    $var wire 32 ' id_io_ex_immediate [31:0] $end
    $var wire 1 ( id_io_ex_aluop1_source $end
    $var wire 1 ) id_io_ex_aluop2_source $end
    $var wire 1 * id_io_memory_read_enable $end
    $var wire 1 + id_io_memory_write_enable $end
    $var wire 2 , id_io_wb_reg_write_source [1:0] $end
    $var wire 1 # id_io_reg_write_enable $end
    $var wire 5 $ id_io_reg_write_address [4:0] $end
    $var wire 32 k ex_io_instruction [31:0] $end
    $var wire 32 ] ex_io_instruction_address [31:0] $end
    $var wire 32 2 ex_io_reg1_data [31:0] $end
    $var wire 32 3 ex_io_reg2_data [31:0] $end
    $var wire 32 ' ex_io_immediate [31:0] $end
    $var wire 1 ( ex_io_aluop1_source $end
    $var wire 1 ) ex_io_aluop2_source $end
    $var wire 32 6 ex_io_mem_alu_result [31:0] $end
    $var wire 1 4 ex_io_if_jump_flag $end
    $var wire 32 5 ex_io_if_jump_address [31:0] $end
    $var wire 32 6 mem_io_alu_result [31:0] $end
    $var wire 32 3 mem_io_reg2_data [31:0] $end
    $var wire 1 * mem_io_memory_read_enable $end
    $var wire 1 + mem_io_memory_write_enable $end
    $var wire 3 - mem_io_funct3 [2:0] $end
    $var wire 32 l mem_io_wb_memory_read_data [31:0] $end
    $var wire 32 6 mem_io_memory_bundle_address [31:0] $end
    $var wire 32 ` mem_io_memory_bundle_write_data [31:0] $end
    $var wire 1 a mem_io_memory_bundle_write_enable $end
    $var wire 1 b mem_io_memory_bundle_write_strobe_0 $end
    $var wire 1 c mem_io_memory_bundle_write_strobe_1 $end
    $var wire 1 d mem_io_memory_bundle_write_strobe_2 $end
    $var wire 1 e mem_io_memory_bundle_write_strobe_3 $end
    $var wire 32 f mem_io_memory_bundle_read_data [31:0] $end
    $var wire 32 ] wb_io_instruction_address [31:0] $end
    $var wire 32 6 wb_io_alu_result [31:0] $end
    $var wire 32 l wb_io_memory_read_data [31:0] $end
    $var wire 2 , wb_io_regs_write_source [1:0] $end
    $var wire 32 1 wb_io_regs_write_data [31:0] $end
    $scope module ex $end
     $var wire 32 k io_instruction [31:0] $end
     $var wire 32 ] io_instruction_address [31:0] $end
     $var wire 32 2 io_reg1_data [31:0] $end
     $var wire 32 3 io_reg2_data [31:0] $end
     $var wire 32 ' io_immediate [31:0] $end
     $var wire 1 ( io_aluop1_source $end
     $var wire 1 ) io_aluop2_source $end
     $var wire 32 6 io_mem_alu_result [31:0] $end
     $var wire 1 4 io_if_jump_flag $end
     $var wire 32 5 io_if_jump_address [31:0] $end
     $var wire 5 . alu_io_func [4:0] $end
     $var wire 32 7 alu_io_op1 [31:0] $end
     $var wire 32 8 alu_io_op2 [31:0] $end
     $var wire 32 6 alu_io_result [31:0] $end
     $var wire 7 / alu_ctrl_io_opcode [6:0] $end
     $var wire 3 - alu_ctrl_io_funct3 [2:0] $end
     $var wire 7 m alu_ctrl_io_funct7 [6:0] $end
     $var wire 5 . alu_ctrl_io_alu_funct [4:0] $end
     $var wire 7 / opcode [6:0] $end
     $var wire 3 - funct3 [2:0] $end
     $scope module alu $end
      $var wire 5 . io_func [4:0] $end
      $var wire 32 7 io_op1 [31:0] $end
      $var wire 32 8 io_op2 [31:0] $end
      $var wire 32 6 io_result [31:0] $end
     $upscope $end
     $scope module alu_ctrl $end
      $var wire 7 / io_opcode [6:0] $end
      $var wire 3 - io_funct3 [2:0] $end
      $var wire 7 m io_funct7 [6:0] $end
      $var wire 5 . io_alu_funct [4:0] $end
     $upscope $end
    $upscope $end
    $scope module id $end
     $var wire 32 k io_instruction [31:0] $end
     $var wire 5 % io_regs_reg1_read_address [4:0] $end
     $var wire 5 & io_regs_reg2_read_address [4:0] $end
     $var wire 32 ' io_ex_immediate [31:0] $end
     $var wire 1 ( io_ex_aluop1_source $end
     $var wire 1 ) io_ex_aluop2_source $end
     $var wire 1 * io_memory_read_enable $end
     $var wire 1 + io_memory_write_enable $end
     $var wire 2 , io_wb_reg_write_source [1:0] $end
     $var wire 1 # io_reg_write_enable $end
     $var wire 5 $ io_reg_write_address [4:0] $end
     $var wire 7 / opcode [6:0] $end
     $var wire 5 $ rd [4:0] $end
     $var wire 5 0 rs1 [4:0] $end
     $var wire 5 n rs2 [4:0] $end
    $upscope $end
    $scope module inst_fetch $end
     $var wire 1 [ clock $end
     $var wire 1 \ reset $end
     $var wire 1 4 io_jump_flag_id $end
     $var wire 32 5 io_jump_address_id [31:0] $end
     $var wire 32 ^ io_instruction_read_data [31:0] $end
     $var wire 1 g io_instruction_valid $end
     $var wire 32 ] io_instruction_address [31:0] $end
     $var wire 32 k io_instruction [31:0] $end
     $var wire 32 : pc [31:0] $end
    $upscope $end
    $scope module mem $end
     $var wire 32 6 io_alu_result [31:0] $end
     $var wire 32 3 io_reg2_data [31:0] $end
     $var wire 1 * io_memory_read_enable $end
     $var wire 1 + io_memory_write_enable $end
     $var wire 3 - io_funct3 [2:0] $end
     $var wire 32 l io_wb_memory_read_data [31:0] $end
     $var wire 32 6 io_memory_bundle_address [31:0] $end
     $var wire 32 ` io_memory_bundle_write_data [31:0] $end
     $var wire 1 a io_memory_bundle_write_enable $end
     $var wire 1 b io_memory_bundle_write_strobe_0 $end
     $var wire 1 c io_memory_bundle_write_strobe_1 $end
     $var wire 1 d io_memory_bundle_write_strobe_2 $end
     $var wire 1 e io_memory_bundle_write_strobe_3 $end
     $var wire 32 f io_memory_bundle_read_data [31:0] $end
     $var wire 2 9 mem_address_index [1:0] $end
    $upscope $end
    $scope module regs $end
     $var wire 1 [ clock $end
     $var wire 1 \ reset $end
     $var wire 1 # io_write_enable $end
     $var wire 5 $ io_write_address [4:0] $end
     $var wire 32 1 io_write_data [31:0] $end
     $var wire 5 % io_read_address1 [4:0] $end
     $var wire 5 & io_read_address2 [4:0] $end
     $var wire 32 2 io_read_data1 [31:0] $end
     $var wire 32 3 io_read_data2 [31:0] $end
     $var wire 5 i io_debug_read_address [4:0] $end
     $var wire 32 j io_debug_read_data [31:0] $end
     $var wire 32 ; registers_0 [31:0] $end
     $var wire 32 < registers_1 [31:0] $end
     $var wire 32 = registers_2 [31:0] $end
     $var wire 32 > registers_3 [31:0] $end
     $var wire 32 ? registers_4 [31:0] $end
     $var wire 32 @ registers_5 [31:0] $end
     $var wire 32 A registers_6 [31:0] $end
     $var wire 32 B registers_7 [31:0] $end
     $var wire 32 C registers_8 [31:0] $end
     $var wire 32 D registers_9 [31:0] $end
     $var wire 32 E registers_10 [31:0] $end
     $var wire 32 F registers_11 [31:0] $end
     $var wire 32 G registers_12 [31:0] $end
     $var wire 32 H registers_13 [31:0] $end
     $var wire 32 I registers_14 [31:0] $end
     $var wire 32 J registers_15 [31:0] $end
     $var wire 32 K registers_16 [31:0] $end
     $var wire 32 L registers_17 [31:0] $end
     $var wire 32 M registers_18 [31:0] $end
     $var wire 32 N registers_19 [31:0] $end
     $var wire 32 O registers_20 [31:0] $end
     $var wire 32 P registers_21 [31:0] $end
     $var wire 32 Q registers_22 [31:0] $end
     $var wire 32 R registers_23 [31:0] $end
     $var wire 32 S registers_24 [31:0] $end
     $var wire 32 T registers_25 [31:0] $end
     $var wire 32 U registers_26 [31:0] $end
     $var wire 32 V registers_27 [31:0] $end
     $var wire 32 W registers_28 [31:0] $end
     $var wire 32 X registers_29 [31:0] $end
     $var wire 32 Y registers_30 [31:0] $end
     $var wire 32 Z registers_31 [31:0] $end
    $upscope $end
    $scope module wb $end
     $var wire 32 ] io_instruction_address [31:0] $end
     $var wire 32 6 io_alu_result [31:0] $end
     $var wire 32 l io_memory_read_data [31:0] $end
     $var wire 2 , io_regs_write_source [1:0] $end
     $var wire 32 1 io_regs_write_data [31:0] $end
    $upscope $end
   $upscope $end
  $upscope $end
 $upscope $end
$enddefinitions $end


#0
1#
b00000 $
b00000 %
b00000 &
b00000000000000000000000000000000 '
0(
1)
0*
0+
b00 ,
b000 -
b00001 .
b0010011 /
b00000 0
b00000000000000000000000000000000 1
b00000000000000000000000000000000 2
b00000000000000000000000000000000 3
04
b00000000000000000000000000000000 5
b00000000000000000000000000000000 6
b00000000000000000000000000000000 7
b00000000000000000000000000000000 8
b00 9
b00000000000000000000000000000000 :
b00000000000000000000000000000000 ;
b00000000000000000000000000000000 <
b00000000000000000000000000000000 =
b00000000000000000000000000000000 >
b00000000000000000000000000000000 ?
b00000000000000000000000000000000 @
b00000000000000000000000000000000 A
b00000000000000000000000000000000 B
b00000000000000000000000000000000 C
b00000000000000000000000000000000 D
b00000000000000000000000000000000 E
b00000000000000000000000000000000 F
b00000000000000000000000000000000 G
b00000000000000000000000000000000 H
b00000000000000000000000000000000 I
b00000000000000000000000000000000 J
b00000000000000000000000000000000 K
b00000000000000000000000000000000 L
b00000000000000000000000000000000 M
b00000000000000000000000000000000 N
b00000000000000000000000000000000 O
b00000000000000000000000000000000 P
b00000000000000000000000000000000 Q
b00000000000000000000000000000000 R
b00000000000000000000000000000000 S
b00000000000000000000000000000000 T
b00000000000000000000000000000000 U
b00000000000000000000000000000000 V
b00000000000000000000000000000000 W
b00000000000000000000000000000000 X
b00000000000000000000000000000000 Y
b00000000000000000000000000000000 Z
0[
1\
b00000000000000000000000000000000 ]
b00000000000000000000000000000000 ^
b00000000000000000000000000000000 _
b00000000000000000000000000000000 `
0a
0b
0c
0d
0e
b00000000000000000000000000000000 f
0g
b000 h
b00000 i
b00000000000000000000000000000000 j
b00000000000000000000000000010011 k
b00000000000000000000000000000000 l
b0000000 m
b00000 n
#1
0#
b00000 .
b0000000 /
b00000000000000000001000000000000 5
b00000000000000000001000000000000 :
1[
b00000000000000000001000000000000 ]
1g
b00000000000000000000000000000000 k
#2
1#
b01011 $
b01010 %
b00000000000000000000010000011111 '
b101 -
b01001 .
b0010011 /
b01010 0
b00000000000000000001010000011111 5
b00000000000000000000010000011111 8
b01000001111101010101010110010011 ^
b01000001111101010101010110010011 k
b0100000 m
b11111 n
#3
0[
0\
#4
#5
b00000000000000000001010000100011 5
b00000000000000000001000000000100 :
1[
b00000000000000000001000000000100 ]
#6
b01011 %
b00000000000000000000000000011111 '
b001 -
b00011 .
b01011 0
b00000000000000000001000000100011 5
b00000000000000000000000000011111 8
b00000001111101011001010110010011 ^
b00000001111101011001010110010011 k
b0000000 m
#7
0[
#8
#9
b00000000000000000001000000100111 5
b00000000000000000001000000001000 :
1[
b00000000000000000001000000001000 ]
#10
0#
b01000 $
b01010 %
b00000000000000000000000000001000 '
1(
b101 -
b00001 .
b1100011 /
b01010 0
b00000000000000000001000000010000 1
14
b00000000000000000001000000010000 5
b00000000000000000001000000010000 6
b00000000000000000001000000001000 7
b00000000000000000000000000001000 8
b00000000000001010101010001100011 ^
b00000000000000000001000000010000 _
b00000000000001010101010001100011 k
b00000 n
#11
0[
b00000100000001010000000001100011 f
#12
#13
b00000000000000000001000000011000 1
b00000000000000000001000000011000 5
b00000000000000000001000000011000 6
b00000000000000000001000000010000 7
b00000000000000000001000000010000 :
1[
b00000000000000000001000000010000 ]
b00000000000000000001000000011000 _
#14
b00000 $
b00000000000000000000000001000000 '
b000 -
b00000000000000000001000001010000 1
b00000000000000000001000001010000 5
b00000000000000000001000001010000 6
b00000000000000000000000001000000 8
b00000100000001010000000001100011 ^
b00000000000000000001000001010000 _
b00000000010101010001010110110011 f
b00000100000001010000000001100011 k
b0000010 m
#15
0[
b00000000101100000110010100110011 f
#16
#17
b00000000000000000001000010010000 1
b00000000000000000001000010010000 5
b00000000000000000001000010010000 6
b00000000000000000001000001010000 7
b00000000000000000001000001010000 :
1[
b00000000000000000001000001010000 ]
b00000000000000000001000010010000 _
#18
1#
b01010 $
b00000 %
b01011 &
b00000000000000000000000000001011 '
0(
0)
b110 -
b00110 .
b0110011 /
b00000 0
b00000000000000000000000000000000 1
04
b00000000000000000001000001011011 5
b00000000000000000000000000000000 6
b00000000000000000000000000000000 7
b00000000000000000000000000000000 8
b00000000101100000110010100110011 ^
b00000000000000000000000000000000 _
b00000000000000000000000000000000 f
b00000000101100000110010100110011 k
b0000000 m
b01011 n
#19
0[
#20
#21
b00000000000000000001000001011111 5
b00000000000000000001000001010100 :
1[
b00000000000000000001000001010100 ]
#22
b00000 $
b00001 %
b00000 &
b00000000000000000000000000000000 '
1)
b11 ,
b000 -
b00001 .
b1100111 /
b00001 0
b00000000000000000001000001011000 1
14
b00000000000000000000000000000000 5
b00000000000000001000000001100111 ^
b00000000000000001000000001100111 k
b00000 n
#23
0[
#24
#25
b00000000000000000000000000000100 1
b00000000000000000000000000000000 :
1[
b00000000000000000000000000000000 ]
#26
0#
b00000 %
b00 ,
b00000 .
b0000000 /
b00000 0
b00000000000000000000000000000000 1
04
b00000000000000000000000000000000 ^
b00000000000000000000000000000000 k
#27
0[
#28
#29
b00000000000000000000000000000100 5
b00000000000000000000000000000100 :
1[
b00000000000000000000000000000100 ]
#30
#31
0[
#32
#33
b00000000000000000000000000001000 5
b00000000000000000000000000001000 :
1[
b00000000000000000000000000001000 ]
#34
#35
0[
#36
#37
b00000000000000000000000000001100 5
b00000000000000000000000000001100 :
1[
b00000000000000000000000000001100 ]
#38
#39
0[
#40
#41
b00000000000000000000000000010000 5
b00000000000000000000000000010000 :
1[
b00000000000000000000000000010000 ]
#42
#43
0[
#44
#45
b00000000000000000000000000010100 5
b00000000000000000000000000010100 :
1[
b00000000000000000000000000010100 ]
#46
#47
0[
#48
#49
b00000000000000000000000000011000 5
b00000000000000000000000000011000 :
1[
b00000000000000000000000000011000 ]
#50
#51
0[
#52
#53
b00000000000000000000000000011100 5
b00000000000000000000000000011100 :
1[
b00000000000000000000000000011100 ]
#54
#55
0[
#56
#57
b00000000000000000000000000100000 5
b00000000000000000000000000100000 :
1[
b00000000000000000000000000100000 ]
#58
#59
0[
#60
#61
b00000000000000000000000000100100 5
b00000000000000000000000000100100 :
1[
b00000000000000000000000000100100 ]
#62
#63
0[
#64
#65
b00000000000000000000000000101000 5
b00000000000000000000000000101000 :
1[
b00000000000000000000000000101000 ]
#66
#67
0[
#68
#69
b00000000000000000000000000101100 5
b00000000000000000000000000101100 :
1[
b00000000000000000000000000101100 ]
#70
#71
0[
#72
#73
b00000000000000000000000000110000 5
b00000000000000000000000000110000 :
1[
b00000000000000000000000000110000 ]
#74
#75
0[
#76
#77
b00000000000000000000000000110100 5
b00000000000000000000000000110100 :
1[
b00000000000000000000000000110100 ]
#78
#79
0[
#80
#81
b00000000000000000000000000111000 5
b00000000000000000000000000111000 :
1[
b00000000000000000000000000111000 ]
#82
#83
0[
#84
#85
b00000000000000000000000000111100 5
b00000000000000000000000000111100 :
1[
b00000000000000000000000000111100 ]
#86
#87
0[
#88
#89
b00000000000000000000000001000000 5
b00000000000000000000000001000000 :
1[
b00000000000000000000000001000000 ]
#90
#91
0[
#92
#93
b00000000000000000000000001000100 5
b00000000000000000000000001000100 :
1[
b00000000000000000000000001000100 ]
#94
#95
0[
#96
#97
b00000000000000000000000001001000 5
b00000000000000000000000001001000 :
1[
b00000000000000000000000001001000 ]
#98
#99
0[
#100
#101
b00000000000000000000000001001100 5
b00000000000000000000000001001100 :
1[
b00000000000000000000000001001100 ]
#102
#103
0[
#104
#105
b00000000000000000000000001010000 5
b00000000000000000000000001010000 :
1[
b00000000000000000000000001010000 ]
#106
#107
0[
#108
#109
b00000000000000000000000001010100 5
b00000000000000000000000001010100 :
1[
b00000000000000000000000001010100 ]
#110
#111
0[
#112
#113
b00000000000000000000000001011000 5
b00000000000000000000000001011000 :
1[
b00000000000000000000000001011000 ]
#114
#115
0[
#116
#117
b00000000000000000000000001011100 5
b00000000000000000000000001011100 :
1[
b00000000000000000000000001011100 ]
#118
#119
0[
#120
#121
b00000000000000000000000001100000 5
b00000000000000000000000001100000 :
1[
b00000000000000000000000001100000 ]
#122
#123
0[
#124
#125
b00000000000000000000000001100100 5
b00000000000000000000000001100100 :
1[
b00000000000000000000000001100100 ]
#126
#127
0[
#128
#129
b00000000000000000000000001101000 5
b00000000000000000000000001101000 :
1[
b00000000000000000000000001101000 ]
#130
#131
0[
#132
#133
b00000000000000000000000001101100 5
b00000000000000000000000001101100 :
1[
b00000000000000000000000001101100 ]
#134
#135
0[
#136
#137
b00000000000000000000000001110000 5
b00000000000000000000000001110000 :
1[
b00000000000000000000000001110000 ]
#138
#139
0[
#140
#141
b00000000000000000000000001110100 5
b00000000000000000000000001110100 :
1[
b00000000000000000000000001110100 ]
#142
#143
0[
#144
#145
b00000000000000000000000001111000 5
b00000000000000000000000001111000 :
1[
b00000000000000000000000001111000 ]
#146
#147
0[
#148
#149
b00000000000000000000000001111100 5
b00000000000000000000000001111100 :
1[
b00000000000000000000000001111100 ]
#150
#151
0[
#152
#153
b00000000000000000000000010000000 5
b00000000000000000000000010000000 :
1[
b00000000000000000000000010000000 ]
#154
#155
0[
#156
#157
b00000000000000000000000010000100 5
b00000000000000000000000010000100 :
1[
b00000000000000000000000010000100 ]
#158
#159
0[
#160
#161
b00000000000000000000000010001000 5
b00000000000000000000000010001000 :
1[
b00000000000000000000000010001000 ]
#162
#163
0[
#164
#165
b00000000000000000000000010001100 5
b00000000000000000000000010001100 :
1[
b00000000000000000000000010001100 ]
#166
#167
0[
#168
#169
b00000000000000000000000010010000 5
b00000000000000000000000010010000 :
1[
b00000000000000000000000010010000 ]
#170
#171
0[
#172
#173
b00000000000000000000000010010100 5
b00000000000000000000000010010100 :
1[
b00000000000000000000000010010100 ]
#174
#175
0[
#176
#177
b00000000000000000000000010011000 5
b00000000000000000000000010011000 :
1[
b00000000000000000000000010011000 ]
#178
#179
0[
#180
#181
b00000000000000000000000010011100 5
b00000000000000000000000010011100 :
1[
b00000000000000000000000010011100 ]
#182
#183
0[
#184
#185
b00000000000000000000000010100000 5
b00000000000000000000000010100000 :
1[
b00000000000000000000000010100000 ]
#186
#187
0[
#188
#189
b00000000000000000000000010100100 5
b00000000000000000000000010100100 :
1[
b00000000000000000000000010100100 ]
#190
#191
0[
#192
#193
b00000000000000000000000010101000 5
b00000000000000000000000010101000 :
1[
b00000000000000000000000010101000 ]
#194
#195
0[
#196
#197
b00000000000000000000000010101100 5
b00000000000000000000000010101100 :
1[
b00000000000000000000000010101100 ]
#198
#199
0[
#200
#201
b00000000000000000000000010110000 5
b00000000000000000000000010110000 :
1[
b00000000000000000000000010110000 ]
#202
#203
0[
#204
#205
b00000000000000000000000010110100 5
b00000000000000000000000010110100 :
1[
b00000000000000000000000010110100 ]
#206
#207
0[
#208
#209
b00000000000000000000000010111000 5
b00000000000000000000000010111000 :
1[
b00000000000000000000000010111000 ]
#210
#211
0[
#212
#213
b00000000000000000000000010111100 5
b00000000000000000000000010111100 :
1[
b00000000000000000000000010111100 ]
#214
#215
0[
#216
#217
b00000000000000000000000011000000 5
b00000000000000000000000011000000 :
1[
b00000000000000000000000011000000 ]
#218
#219
0[
#220
#221
b00000000000000000000000011000100 5
b00000000000000000000000011000100 :
1[
b00000000000000000000000011000100 ]
#222
#223
0[
#224
#225
b00000000000000000000000011001000 5
b00000000000000000000000011001000 :
1[
b00000000000000000000000011001000 ]
#226
#227
0[
#228
#229
b00000000000000000000000011001100 5
b00000000000000000000000011001100 :
1[
b00000000000000000000000011001100 ]
#230
#231
0[
#232
#233
b00000000000000000000000011010000 5
b00000000000000000000000011010000 :
1[
b00000000000000000000000011010000 ]
#234
#235
0[
#236
#237
b00000000000000000000000011010100 5
b00000000000000000000000011010100 :
1[
b00000000000000000000000011010100 ]
#238
#239
0[
#240
#241
b00000000000000000000000011011000 5
b00000000000000000000000011011000 :
1[
b00000000000000000000000011011000 ]
#242
#243
0[
#244
#245
b00000000000000000000000011011100 5
b00000000000000000000000011011100 :
1[
b00000000000000000000000011011100 ]
#246
#247
0[
#248
#249
b00000000000000000000000011100000 5
b00000000000000000000000011100000 :
1[
b00000000000000000000000011100000 ]
#250
#251
0[
#252
#253
b00000000000000000000000011100100 5
b00000000000000000000000011100100 :
1[
b00000000000000000000000011100100 ]
#254
#255
0[
#256
#257
b00000000000000000000000011101000 5
b00000000000000000000000011101000 :
1[
b00000000000000000000000011101000 ]
#258
#259
0[
#260
#261
b00000000000000000000000011101100 5
b00000000000000000000000011101100 :
1[
b00000000000000000000000011101100 ]
#262
#263
0[
#264
#265
b00000000000000000000000011110000 5
b00000000000000000000000011110000 :
1[
b00000000000000000000000011110000 ]
#266
#267
0[
#268
#269
b00000000000000000000000011110100 5
b00000000000000000000000011110100 :
1[
b00000000000000000000000011110100 ]
#270
#271
0[
#272
#273
b00000000000000000000000011111000 5
b00000000000000000000000011111000 :
1[
b00000000000000000000000011111000 ]
#274
#275
0[
#276
#277
b00000000000000000000000011111100 5
b00000000000000000000000011111100 :
1[
b00000000000000000000000011111100 ]
#278
#279
0[
#280
#281
b00000000000000000000000100000000 5
b00000000000000000000000100000000 :
1[
b00000000000000000000000100000000 ]
#282
#283
0[
#284
#285
b00000000000000000000000100000100 5
b00000000000000000000000100000100 :
1[
b00000000000000000000000100000100 ]
#286
#287
0[
#288
#289
b00000000000000000000000100001000 5
b00000000000000000000000100001000 :
1[
b00000000000000000000000100001000 ]
#290
#291
0[
#292
#293
b00000000000000000000000100001100 5
b00000000000000000000000100001100 :
1[
b00000000000000000000000100001100 ]
#294
#295
0[
#296
#297
b00000000000000000000000100010000 5
b00000000000000000000000100010000 :
1[
b00000000000000000000000100010000 ]
#298
#299
0[
#300
#301
b00000000000000000000000100010100 5
b00000000000000000000000100010100 :
1[
b00000000000000000000000100010100 ]
#302
#303
0[
#304
#305
b00000000000000000000000100011000 5
b00000000000000000000000100011000 :
1[
b00000000000000000000000100011000 ]
#306
#307
0[
#308
#309
b00000000000000000000000100011100 5
b00000000000000000000000100011100 :
1[
b00000000000000000000000100011100 ]
#310
#311
0[
#312
#313
b00000000000000000000000100100000 5
b00000000000000000000000100100000 :
1[
b00000000000000000000000100100000 ]
#314
#315
0[
#316
#317
b00000000000000000000000100100100 5
b00000000000000000000000100100100 :
1[
b00000000000000000000000100100100 ]
#318
#319
0[
#320
#321
b00000000000000000000000100101000 5
b00000000000000000000000100101000 :
1[
b00000000000000000000000100101000 ]
#322
#323
0[
#324
#325
b00000000000000000000000100101100 5
b00000000000000000000000100101100 :
1[
b00000000000000000000000100101100 ]
#326
#327
0[
#328
#329
b00000000000000000000000100110000 5
b00000000000000000000000100110000 :
1[
b00000000000000000000000100110000 ]
#330
#331
0[
#332
#333
b00000000000000000000000100110100 5
b00000000000000000000000100110100 :
1[
b00000000000000000000000100110100 ]
#334
#335
0[
#336
#337
b00000000000000000000000100111000 5
b00000000000000000000000100111000 :
1[
b00000000000000000000000100111000 ]
#338
#339
0[
#340
#341
b00000000000000000000000100111100 5
b00000000000000000000000100111100 :
1[
b00000000000000000000000100111100 ]
#342
#343
0[
#344
#345
b00000000000000000000000101000000 5
b00000000000000000000000101000000 :
1[
b00000000000000000000000101000000 ]
#346
#347
0[
#348
#349
b00000000000000000000000101000100 5
b00000000000000000000000101000100 :
1[
b00000000000000000000000101000100 ]
#350
#351
0[
#352
#353
b00000000000000000000000101001000 5
b00000000000000000000000101001000 :
1[
b00000000000000000000000101001000 ]
#354
#355
0[
#356
#357
b00000000000000000000000101001100 5
b00000000000000000000000101001100 :
1[
b00000000000000000000000101001100 ]
#358
#359
0[
#360
#361
b00000000000000000000000101010000 5
b00000000000000000000000101010000 :
1[
b00000000000000000000000101010000 ]
#362
#363
0[
#364
#365
b00000000000000000000000101010100 5
b00000000000000000000000101010100 :
1[
b00000000000000000000000101010100 ]
#366
#367
0[
#368
#369
b00000000000000000000000101011000 5
b00000000000000000000000101011000 :
1[
b00000000000000000000000101011000 ]
#370
#371
0[
#372
#373
b00000000000000000000000101011100 5
b00000000000000000000000101011100 :
1[
b00000000000000000000000101011100 ]
#374
#375
0[
#376
#377
b00000000000000000000000101100000 5
b00000000000000000000000101100000 :
1[
b00000000000000000000000101100000 ]
#378
#379
0[
#380
#381
b00000000000000000000000101100100 5
b00000000000000000000000101100100 :
1[
b00000000000000000000000101100100 ]
#382
#383
0[
#384
#385
b00000000000000000000000101101000 5
b00000000000000000000000101101000 :
1[
b00000000000000000000000101101000 ]
#386
#387
0[
#388
#389
b00000000000000000000000101101100 5
b00000000000000000000000101101100 :
1[
b00000000000000000000000101101100 ]
#390
#391
0[
#392
#393
b00000000000000000000000101110000 5
b00000000000000000000000101110000 :
1[
b00000000000000000000000101110000 ]
#394
#395
0[
#396
#397
b00000000000000000000000101110100 5
b00000000000000000000000101110100 :
1[
b00000000000000000000000101110100 ]
#398
#399
0[
#400
#401
b00000000000000000000000101111000 5
b00000000000000000000000101111000 :
1[
b00000000000000000000000101111000 ]
#402
#403
0[
#404
#405
b00000000000000000000000101111100 5
b00000000000000000000000101111100 :
1[
b00000000000000000000000101111100 ]
#406
#407
0[
#408
#409
b00000000000000000000000110000000 5
b00000000000000000000000110000000 :
1[
b00000000000000000000000110000000 ]
#410
#411
0[
#412
#413
b00000000000000000000000110000100 5
b00000000000000000000000110000100 :
1[
b00000000000000000000000110000100 ]
#414
#415
0[
#416
#417
b00000000000000000000000110001000 5
b00000000000000000000000110001000 :
1[
b00000000000000000000000110001000 ]
#418
#419
0[
#420
